layer at (0,0) size 2132x584
  RenderView at (0,0) size 800x584
layer at (0,0) size 2132x584
  RenderBlock {HTML} at (0,0) size 2132x584
    RenderBody {BODY} at (8,8) size 2108x568
      RenderBlock {UL} at (0,0) size 150x182 [border: (1px solid #0000FF)]
        RenderListItem {LI} at (1,41) size 42x140 [border: (5px solid #FFA500)]
          RenderListMarker at (10,-18) size 22x7: bullet
          RenderText {#text} at (10,10) size 22x65
            text run at (10,10) width 65: "First item"
        RenderListItem {LI} at (43,41) size 64x140 [border: (5px solid #FFA500)]
          RenderListMarker at (10,-18) size 22x7: bullet
          RenderText {#text} at (10,10) size 44x113
            text run at (10,10) width 113: "Second and very"
            text run at (32,10) width 96: "very long item"
        RenderListItem {LI} at (107,41) size 42x140 [border: (5px solid #FFA500)]
          RenderListMarker at (10,-18) size 22x7: bullet
          RenderText {#text} at (10,10) size 22x73
            text run at (10,10) width 73: "Third item"
      RenderBlock {UL} at (166,0) size 150x182 [border: (1px solid #FF0000)]
        RenderListItem {LI} at (1,1) size 42x140 [border: (5px solid #FFA500)]
          RenderListMarker at (10,151) size 22x7: bullet
          RenderText {#text} at (10,65) size 22x65
            text run at (10,65) width 65: "First item"
        RenderListItem {LI} at (43,1) size 64x140 [border: (5px solid #FFA500)]
          RenderListMarker at (10,151) size 22x7: bullet
          RenderText {#text} at (10,17) size 44x113
            text run at (10,17) width 113: "Second and very"
            text run at (32,34) width 96: "very long item"
        RenderListItem {LI} at (107,1) size 42x140 [border: (5px solid #FFA500)]
          RenderListMarker at (10,151) size 22x7: bullet
          RenderText {#text} at (10,57) size 22x73
            text run at (10,57) width 73: "Third item"
      RenderBlock {UL} at (332,0) size 172x182 [border: (1px solid #0000FF)]
        RenderListItem {LI} at (1,41) size 42x140 [border: (5px solid #FFA500)]
          RenderListMarker at (10,9) size 22x7: bullet
          RenderText {#text} at (10,26) size 22x65
            text run at (10,26) width 65: "First item"
        RenderListItem {LI} at (43,41) size 86x140 [border: (5px solid #FFA500)]
          RenderListMarker at (10,9) size 22x7: bullet
          RenderText {#text} at (10,26) size 66x97
            text run at (10,26) width 79: "Second and"
            text run at (32,10) width 97: "very very long"
            text run at (54,10) width 29: "item"
        RenderListItem {LI} at (129,41) size 42x140 [border: (5px solid #FFA500)]
          RenderListMarker at (10,9) size 22x7: bullet
          RenderText {#text} at (10,26) size 22x73
            text run at (10,26) width 73: "Third item"
      RenderBlock {UL} at (520,0) size 172x182 [border: (1px solid #FF0000)]
        RenderListItem {LI} at (1,1) size 42x140 [border: (5px solid #FFA500)]
          RenderListMarker at (10,124) size 22x7: bullet
          RenderText {#text} at (10,49) size 22x65
            text run at (10,49) width 65: "First item"
        RenderListItem {LI} at (43,1) size 86x140 [border: (5px solid #FFA500)]
          RenderListMarker at (10,124) size 22x7: bullet
          RenderText {#text} at (10,35) size 66x97
            text run at (10,35) width 79: "Second and"
            text run at (32,33) width 97: "very very long"
            text run at (54,101) width 29: "item"
        RenderListItem {LI} at (129,1) size 42x140 [border: (5px solid #FFA500)]
          RenderListMarker at (10,124) size 22x7: bullet
          RenderText {#text} at (10,41) size 22x73
            text run at (10,41) width 73: "Third item"
      RenderBlock {UL} at (708,0) size 150x182 [border: (1px solid #0000FF)]
        RenderListItem {LI} at (1,41) size 42x140 [border: (5px solid #FFA500)]
          RenderListMarker at (16,-17) size 10x10
          RenderText {#text} at (10,10) size 22x65
            text run at (10,10) width 65: "First item"
        RenderListItem {LI} at (43,41) size 64x140 [border: (5px solid #FFA500)]
          RenderListMarker at (16,-17) size 10x10
          RenderText {#text} at (10,10) size 44x113
            text run at (10,10) width 113: "Second and very"
            text run at (32,10) width 96: "very long item"
        RenderListItem {LI} at (107,41) size 42x140 [border: (5px solid #FFA500)]
          RenderListMarker at (16,-17) size 10x10
          RenderText {#text} at (10,10) size 22x73
            text run at (10,10) width 73: "Third item"
      RenderBlock {UL} at (874,0) size 150x182 [border: (1px solid #FF0000)]
        RenderListItem {LI} at (1,1) size 42x140 [border: (5px solid #FFA500)]
          RenderListMarker at (16,147) size 10x10
          RenderText {#text} at (10,65) size 22x65
            text run at (10,65) width 65: "First item"
        RenderListItem {LI} at (43,1) size 64x140 [border: (5px solid #FFA500)]
          RenderListMarker at (16,147) size 10x10
          RenderText {#text} at (10,17) size 44x113
            text run at (10,17) width 113: "Second and very"
            text run at (32,34) width 96: "very long item"
        RenderListItem {LI} at (107,1) size 42x140 [border: (5px solid #FFA500)]
          RenderListMarker at (16,147) size 10x10
          RenderText {#text} at (10,57) size 22x73
            text run at (10,57) width 73: "Third item"
      RenderBlock {UL} at (1040,0) size 172x182 [border: (1px solid #0000FF)]
        RenderListItem {LI} at (1,41) size 42x140 [border: (5px solid #FFA500)]
          RenderListMarker at (16,10) size 10x10
          RenderText {#text} at (10,27) size 22x65
            text run at (10,27) width 65: "First item"
        RenderListItem {LI} at (43,41) size 86x140 [border: (5px solid #FFA500)]
          RenderListMarker at (16,10) size 10x10
          RenderText {#text} at (10,27) size 66x97
            text run at (10,27) width 79: "Second and"
            text run at (32,10) width 97: "very very long"
            text run at (54,10) width 29: "item"
        RenderListItem {LI} at (129,41) size 42x140 [border: (5px solid #FFA500)]
          RenderListMarker at (16,10) size 10x10
          RenderText {#text} at (10,27) size 22x73
            text run at (10,27) width 73: "Third item"
      RenderBlock {UL} at (1228,0) size 172x182 [border: (1px solid #FF0000)]
        RenderListItem {LI} at (1,1) size 42x140 [border: (5px solid #FFA500)]
          RenderListMarker at (16,120) size 10x10
          RenderText {#text} at (10,48) size 22x65
            text run at (10,48) width 65: "First item"
        RenderListItem {LI} at (43,1) size 86x140 [border: (5px solid #FFA500)]
          RenderListMarker at (16,120) size 10x10
          RenderText {#text} at (10,34) size 66x97
            text run at (10,34) width 79: "Second and"
            text run at (32,33) width 97: "very very long"
            text run at (54,101) width 29: "item"
        RenderListItem {LI} at (129,1) size 42x140 [border: (5px solid #FFA500)]
          RenderListMarker at (16,120) size 10x10
          RenderText {#text} at (10,40) size 22x73
            text run at (10,40) width 73: "Third item"
      RenderBlock {OL} at (1416,0) size 150x182 [border: (1px solid #0000FF)]
        RenderListItem {LI} at (1,41) size 42x140 [border: (5px solid #FFA500)]
          RenderListMarker at (10,-21) size 22x16: "1"
          RenderText {#text} at (10,10) size 22x65
            text run at (10,10) width 65: "First item"
        RenderListItem {LI} at (43,41) size 64x140 [border: (5px solid #FFA500)]
          RenderListMarker at (10,-21) size 22x16: "2"
          RenderText {#text} at (10,10) size 44x113
            text run at (10,10) width 113: "Second and very"
            text run at (32,10) width 96: "very long item"
        RenderListItem {LI} at (107,41) size 42x140 [border: (5px solid #FFA500)]
          RenderListMarker at (10,-21) size 22x16: "3"
          RenderText {#text} at (10,10) size 22x73
            text run at (10,10) width 73: "Third item"
      RenderBlock {OL} at (1582,0) size 150x182 [border: (1px solid #FF0000)]
        RenderListItem {LI} at (1,1) size 42x140 [border: (5px solid #FFA500)]
          RenderListMarker at (10,145) size 22x16: "1"
          RenderText {#text} at (10,65) size 22x65
            text run at (10,65) width 65: "First item"
        RenderListItem {LI} at (43,1) size 64x140 [border: (5px solid #FFA500)]
          RenderListMarker at (10,145) size 22x16: "2"
          RenderText {#text} at (10,17) size 44x113
            text run at (10,17) width 113: "Second and very"
            text run at (32,34) width 96: "very long item"
        RenderListItem {LI} at (107,1) size 42x140 [border: (5px solid #FFA500)]
          RenderListMarker at (10,145) size 22x16: "3"
          RenderText {#text} at (10,57) size 22x73
            text run at (10,57) width 73: "Third item"
      RenderBlock {OL} at (1748,0) size 172x182 [border: (1px solid #0000FF)]
        RenderListItem {LI} at (1,41) size 42x140 [border: (5px solid #FFA500)]
          RenderListMarker at (10,10) size 22x16: "1"
          RenderText {#text} at (10,26) size 22x65
            text run at (10,26) width 65: "First item"
        RenderListItem {LI} at (43,41) size 86x140 [border: (5px solid #FFA500)]
          RenderListMarker at (10,10) size 22x16: "2"
          RenderText {#text} at (10,26) size 66x97
            text run at (10,26) width 79: "Second and"
            text run at (32,10) width 97: "very very long"
            text run at (54,10) width 29: "item"
        RenderListItem {LI} at (129,41) size 42x140 [border: (5px solid #FFA500)]
          RenderListMarker at (10,10) size 22x16: "3"
          RenderText {#text} at (10,26) size 22x73
            text run at (10,26) width 73: "Third item"
      RenderBlock {OL} at (1936,0) size 172x182 [border: (1px solid #FF0000)]
        RenderListItem {LI} at (1,1) size 42x140 [border: (5px solid #FFA500)]
          RenderListMarker at (10,114) size 22x16: "1"
          RenderText {#text} at (10,49) size 22x65
            text run at (10,49) width 65: "First item"
        RenderListItem {LI} at (43,1) size 86x140 [border: (5px solid #FFA500)]
          RenderListMarker at (10,114) size 22x16: "2"
          RenderText {#text} at (10,35) size 66x97
            text run at (10,35) width 79: "Second and"
            text run at (32,33) width 97: "very very long"
            text run at (54,101) width 29: "item"
        RenderListItem {LI} at (129,1) size 42x140 [border: (5px solid #FFA500)]
          RenderListMarker at (10,114) size 22x16: "3"
          RenderText {#text} at (10,41) size 22x73
            text run at (10,41) width 73: "Third item"
