layer at (0,0) size 1040x584
  RenderView at (0,0) size 800x584
layer at (-240,0) size 1040x584 backgroundClip at (0,0) size 1040x584 clip at (0,0) size 1040x584 outlineClip at (0,0) size 1040x584
  RenderBlock {HTML} at (0,0) size 1040x584
    RenderBody {BODY} at (8,8) size 1024x568
layer at (-232,8) size 1024x568 backgroundClip at (0,0) size 1040x584 clip at (0,0) size 1040x584 outlineClip at (0,0) size 1040x584
  RenderBlock {DIV} at (0,0) size 1024x568 [border: (5px solid #000000)]
    RenderText {#text} at (5,15) size 2996x168
      text run at (5,15) width 150: "Lorem ipsum dolor sit"
      text run at (27,15) width 125: "amet, consectetuer"
      text run at (49,15) width 137: "adipiscing elit. Nulla"
      text run at (71,15) width 123: "varius enim ac mi."
      text run at (93,15) width 147: "Curabitur sollicitudin"
      text run at (115,15) width 164: "felis quis lectus. Quisque"
      text run at (137,15) width 161: "adipiscing rhoncus sem."
      text run at (159,15) width 124: "Proin nulla purus,"
      text run at (181,15) width 159: "vulputate vel, varius ut,"
      text run at (203,15) width 136: "euismod et, nisi. Sed"
      text run at (225,15) width 165: "vitae felis vel orci sagittis"
      text run at (247,15) width 158: "aliquam. Cras convallis"
      text run at (269,15) width 139: "adipiscing sem. Nam"
      text run at (291,15) width 164: "nonummy enim. Nullam"
      text run at (313,15) width 124: "bibendum lobortis"
      text run at (335,15) width 159: "neque. Vestibulum velit"
      text run at (357,15) width 147: "orci, tempus euismod,"
      text run at (379,15) width 157: "pretium quis, interdum"
      text run at (401,15) width 145: "vitae, nulla. Phasellus"
      text run at (423,15) width 120: "eget ante et tortor"
      text run at (445,15) width 93: "condimentum"
      text run at (467,15) width 163: "vestibulum. Suspendisse"
      text run at (489,15) width 168: "hendrerit quam nec felis."
      text run at (511,15) width 151: "Sed varius turpis vitae"
      text run at (533,15) width 131: "pede. Lorem ipsum"
      text run at (555,15) width 96: "dolor sit amet,"
      text run at (577,15) width 156: "consectetuer adipiscing"
      text run at (599,15) width 139: "elit. Proin bibendum"
      text run at (621,15) width 133: "justo ac enim. Class"
      text run at (643,15) width 162: "aptent taciti sociosqu ad"
      text run at (665,15) width 126: "litora torquent per"
      text run at (687,15) width 132: "conubia nostra, per"
      text run at (709,15) width 167: "inceptos hymenaeos. Sed"
      text run at (731,15) width 139: "leo nulla, rutrum eu,"
      text run at (753,15) width 153: "dictum ut, posuere vel,"
      text run at (775,15) width 166: "arcu. Nam libero. Morbi"
      text run at (797,15) width 101: "orci. Maecenas"
      text run at (819,15) width 161: "pellentesque. Curabitur"
      text run at (841,15) width 149: "erat erat, ullamcorper"
      text run at (863,15) width 159: "at, gravida vitae, iaculis"
      text run at (885,15) width 165: "vitae, elit. Nullam quam."
      text run at (907,15) width 132: "Quisque orci lectus,"
      text run at (929,15) width 107: "ullamcorper eu,"
      text run at (951,15) width 166: "imperdiet sed, accumsan"
      text run at (973,15) width 165: "et, ligula. Duis diam nisl,"
      text run at (995,15) width 114: "sagittis a, blandit"
      text run at (1019,15) width 157: "volutpat, interdum sed,"
      text run at (1041,15) width 161: "velit. Vestibulum quam."
      text run at (1063,15) width 164: "Nulla a purus. Phasellus"
      text run at (1085,15) width 148: "semper semper lectus."
      text run at (1107,15) width 143: "Nulla porttitor, dolor"
      text run at (1129,15) width 124: "dictum scelerisque"
      text run at (1151,15) width 121: "luctus, velit ipsum"
      text run at (1173,15) width 125: "lobortis mauris, ac"
      text run at (1195,15) width 152: "pretium enim nunc vel"
      text run at (1217,15) width 155: "risus. Proin gravida mi"
      text run at (1239,15) width 141: "ut sem cursus mattis."
      text run at (1261,15) width 152: "Fusce laoreet, nisi quis"
      text run at (1283,15) width 139: "luctus volutpat, arcu"
      text run at (1305,15) width 165: "pede tincidunt enim, nec"
      text run at (1327,15) width 156: "malesuada urna nisl eu"
      text run at (1349,15) width 147: "enim. Vivamus varius"
      text run at (1371,15) width 108: "augue ac purus."
      text run at (1393,15) width 160: "Vestibulum vestibulum."
      text run at (1415,15) width 137: "Phasellus et est vitae"
      text run at (1437,15) width 163: "ante accumsan rhoncus."
      text run at (1459,15) width 161: "Morbi convallis, arcu at"
      text run at (1481,15) width 154: "hendrerit gravida, sem"
      text run at (1503,15) width 167: "diam dignissim risus, sed"
      text run at (1525,15) width 141: "aliquet erat mi ut mi."
      text run at (1547,15) width 161: "Nunc cursus lacinia elit."
      text run at (1569,15) width 145: "Nunc nisi. Quisque at"
      text run at (1591,15) width 164: "erat. Vestibulum dictum"
      text run at (1613,15) width 155: "quam vitae nibh. Nunc"
      text run at (1635,15) width 128: "vitae ante non odio"
      text run at (1657,15) width 119: "interdum blandit."
      text run at (1679,15) width 140: "Curabitur leo quam,"
      text run at (1701,15) width 155: "fermentum sed, feugiat"
      text run at (1723,15) width 164: "in, ullamcorper id, nibh."
      text run at (1745,15) width 167: "Suspendisse ac turpis. In"
      text run at (1767,15) width 149: "iaculis sollicitudin dui."
      text run at (1789,15) width 166: "Aenean vitae lectus vitae"
      text run at (1811,15) width 121: "nulla pellentesque"
      text run at (1833,15) width 118: "sollicitudin. Nunc"
      text run at (1855,15) width 162: "gravida pharetra lectus."
      text run at (1877,15) width 124: "Etiam lacus ligula,"
      text run at (1899,15) width 168: "placerat ut, dictum vitae,"
      text run at (1921,15) width 153: "tempus vel, risus. Cras"
      text run at (1943,15) width 168: "rhoncus. Praesent varius"
      text run at (1965,15) width 134: "ultricies orci. Donec"
      text run at (1987,15) width 158: "mattis, neque ut ornare"
      text run at (2009,15) width 127: "fringilla, ante urna"
      text run at (2033,15) width 114: "placerat eros, vel"
      text run at (2055,15) width 155: "commodo nisi tortor ut"
      text run at (2077,15) width 148: "mauris. Morbi magna"
      text run at (2099,15) width 136: "dui, sagittis sit amet,"
      text run at (2121,15) width 159: "tincidunt et, elementum"
      text run at (2143,15) width 121: "eget, quam. Fusce"
      text run at (2165,15) width 148: "molestie nisl vitae nisi."
      text run at (2187,15) width 141: "Vestibulum a sapien."
      text run at (2209,15) width 138: "Phasellus ante lacus,"
      text run at (2231,15) width 154: "vehicula non, cursus a,"
      text run at (2253,15) width 125: "tempor ut, magna."
      text run at (2275,15) width 136: "Suspendisse potenti."
      text run at (2297,15) width 126: "Fusce aliquet, odio"
      text run at (2319,15) width 117: "viverra vulputate"
      text run at (2341,15) width 165: "dictum, enim odio luctus"
      text run at (2363,15) width 139: "purus, ut scelerisque"
      text run at (2385,15) width 133: "quam nulla non est."
      text run at (2407,15) width 168: "Donec eros lacus, egestas"
      text run at (2429,15) width 120: "vitae, lacinia quis,"
      text run at (2451,15) width 125: "tempor quis, pede."
      text run at (2473,15) width 154: "Morbi orci erat, iaculis"
      text run at (2495,15) width 168: "id, ornare ac, elementum"
      text run at (2517,15) width 142: "at, sem. Nunc ornare"
      text run at (2539,15) width 126: "sodales nisi. Morbi"
      text run at (2561,15) width 164: "interdum commodo nisl."
      text run at (2583,15) width 159: "Fusce eget eros non nisi"
      text run at (2605,15) width 131: "ornare facilisis. Sed"
      text run at (2627,15) width 168: "placerat, est non posuere"
      text run at (2649,15) width 131: "posuere, purus sem"
      text run at (2671,15) width 122: "dignissim libero, a"
      text run at (2693,15) width 151: "viverra tellus dolor vel"
      text run at (2715,15) width 129: "lorem. Cras augue."
      text run at (2737,15) width 98: "Etiam ultricies"
      text run at (2759,15) width 158: "consequat odio. Mauris"
      text run at (2781,15) width 168: "ac libero. Etiam posuere,"
      text run at (2803,15) width 135: "libero vitae euismod"
      text run at (2825,15) width 117: "gravida, urna elit"
      text run at (2847,15) width 142: "imperdiet magna, vel"
      text run at (2869,15) width 128: "cursus elit felis non"
      text run at (2891,15) width 163: "mauris. Donec orci erat,"
      text run at (2913,15) width 147: "porta id, dignissim ut,"
      text run at (2935,15) width 135: "posuere dictum, leo."
      text run at (2957,15) width 158: "Suspendisse scelerisque"
      text run at (2979,15) width 89: "egestas nulla."
