layer at (0,0) size 800x600
  RenderView at (0,0) size 800x600
layer at (0,0) size 800x600
  RenderBlock {HTML} at (0,0) size 800x600
    RenderBody {BODY} at (8,8) size 784x584
      RenderBlock {P} at (0,0) size 784x44
        RenderText {#text} at (0,0) size 57x22
          text run at (0,0) width 57: "Test for "
        RenderInline {A} at (0,0) size 62x22 [color=#0000EE]
          RenderText {#text} at (57,0) size 62x22
            text run at (57,0) width 62: "bug 8121"
        RenderText {#text} at (119,0) size 308x22
          text run at (119,0) width 308: ": REGRESSION: 404s are not displayed and "
        RenderInline {A} at (0,0) size 62x22 [color=#0000EE]
          RenderText {#text} at (427,0) size 62x22
            text run at (427,0) width 62: "bug 7739"
        RenderText {#text} at (489,0) size 779x44
          text run at (489,0) width 290: ": REGRESSION: Assertion failure loading"
          text run at (0,22) width 365: "acid2 test in -[WebCoreFrameBridge installInFrame:]"
      RenderBlock {P} at (0,60) size 784x44
        RenderText {#text} at (0,0) size 784x44
          text run at (0,0) width 174: "Here is an invalid iframe. "
          text run at (174,0) width 610: "It should contain a 404 error message, not any green fallback text. Note this will only work"
          text run at (0,22) width 200: "if this page is fetched via http."
      RenderBlock (anonymous) at (0,120) size 784x184
        RenderPartObject {IFRAME} at (0,0) size 552x184 [border: (2px inset #000000)]
          layer at (0,0) size 548x180
            RenderView at (0,0) size 548x180
          layer at (0,0) size 548x180
            RenderBlock {HTML} at (0,0) size 548x180
              RenderBody {BODY} at (8,8) size 532x164
                RenderText {#text} at (0,0) size 393x22
                  text run at (0,0) width 393: "This 404 error was intentionally generated by a test script."
        RenderText {#text} at (0,0) size 0x0
      RenderBlock {P} at (0,320) size 784x22
        RenderText {#text} at (0,0) size 522x22
          text run at (0,0) width 171: "Here is an invalid object. "
          text run at (171,0) width 351: "It should be rendered with some green fallback text."
      RenderBlock (anonymous) at (0,358) size 784x22
        RenderInline {OBJECT} at (0,0) size 83x22
          RenderText {#text} at (0,0) size 0x0
          RenderInline {SPAN} at (0,0) size 83x22 [color=#008000]
            RenderText {#text} at (0,0) size 83x22
              text run at (0,0) width 83: "fallback text"
          RenderText {#text} at (0,0) size 0x0
        RenderText {#text} at (0,0) size 0x0
