layer at (0,0) size 800x600
  RenderView at (0,0) size 800x600
layer at (0,0) size 800x600
  RenderBlock {HTML} at (0,0) size 800x600
    RenderBody {BODY} at (8,8) size 784x584 [bgcolor=#CCCCCC]
      RenderBlock {P} at (0,0) size 784x22
        RenderText {#text} at (0,0) size 380x22
          text run at (0,0) width 380: "The style declarations which apply to the text below are:"
      RenderBlock {PRE} at (0,38) size 784x51
        RenderText {#text} at (0,0) size 287x51
          text run at (0,0) width 287: ".one {border-right-width: 25px; border-style: solid;}"
          text run at (287,0) width 0: " "
          text run at (0,17) width 279: ".two {border-right-width: thin; border-style: solid;}"
          text run at (279,17) width 0: " "
          text run at (0,34) width 184: ".three {border-right-width: 25px;}"
          text run at (184,34) width 0: " "
      RenderBlock {HR} at (0,102) size 784x2 [border: (1px inset #000000)]
      RenderBlock {P} at (0,120) size 784x94 [border: (3px solid #000000) (25px solid #000000) (3px solid #000000)]
        RenderText {#text} at (3,3) size 181x22
          text run at (3,3) width 181: "This element has a class of "
        RenderInline {TT} at (0,0) size 21x17
          RenderText {#text} at (184,6) size 21x17
            text run at (184,6) width 21: "one"
        RenderText {#text} at (205,3) size 171x22
          text run at (205,3) width 8: ". "
          text run at (213,3) width 163: "However, it contains an "
        RenderInline {SPAN} at (0,0) size 173x28 [border: (3px solid #000000) (1px solid #000000) (3px solid #000000)]
          RenderText {#text} at (379,3) size 149x22
            text run at (379,3) width 149: "inline element of class "
          RenderInline {TT} at (0,0) size 20x17
            RenderText {#text} at (528,6) size 20x17
              text run at (528,6) width 20: "two"
        RenderText {#text} at (549,3) size 746x44
          text run at (549,3) width 200: ", which should result in a thin"
          text run at (3,25) width 241: "solid border on the right side of the "
        RenderInline {STRONG} at (0,0) size 23x22
          RenderText {#text} at (244,25) size 23x22
            text run at (244,25) width 23: "last"
        RenderText {#text} at (267,25) size 718x44
          text run at (267,25) width 454: " box of the inline element (and the UA's default border on the other"
          text run at (3,47) width 84: "three sides). "
          text run at (87,47) width 110: "There is also an "
        RenderInline {SPAN} at (0,0) size 178x22
          RenderText {#text} at (197,47) size 149x22
            text run at (197,47) width 149: "inline element of class "
          RenderInline {TT} at (0,0) size 29x17
            RenderText {#text} at (346,50) size 29x17
              text run at (346,50) width 29: "three"
        RenderText {#text} at (375,47) size 723x44
          text run at (375,47) width 351: ", which should have no right border width or visible"
          text run at (3,69) width 266: "border because no border style was set."
      RenderTable {TABLE} at (0,230) size 784x134 [border: (1px outset #808080)]
        RenderTableSection {TBODY} at (1,1) size 782x132
          RenderTableRow {TR} at (0,0) size 782x30
            RenderTableCell {TD} at (0,0) size 782x30 [bgcolor=#C0C0C0] [border: (1px inset #808080)] [r=0 c=0 rs=1 cs=2]
              RenderInline {STRONG} at (0,0) size 163x22
                RenderText {#text} at (4,4) size 163x22
                  text run at (4,4) width 163: "TABLE Testing Section"
          RenderTableRow {TR} at (0,30) size 782x102
            RenderTableCell {TD} at (0,66) size 12x30 [bgcolor=#C0C0C0] [border: (1px inset #808080)] [r=1 c=0 rs=1 cs=1]
              RenderText {#text} at (4,4) size 4x22
                text run at (4,4) width 4: " "
            RenderTableCell {TD} at (12,30) size 770x102 [border: (1px inset #808080)] [r=1 c=1 rs=1 cs=1]
              RenderBlock {P} at (4,4) size 762x94 [border: (3px solid #000000) (25px solid #000000) (3px solid #000000)]
                RenderText {#text} at (3,3) size 181x22
                  text run at (3,3) width 181: "This element has a class of "
                RenderInline {TT} at (0,0) size 21x17
                  RenderText {#text} at (184,6) size 21x17
                    text run at (184,6) width 21: "one"
                RenderText {#text} at (205,3) size 171x22
                  text run at (205,3) width 8: ". "
                  text run at (213,3) width 163: "However, it contains an "
                RenderInline {SPAN} at (0,0) size 173x28 [border: (3px solid #000000) (1px solid #000000) (3px solid #000000)]
                  RenderText {#text} at (379,3) size 149x22
                    text run at (379,3) width 149: "inline element of class "
                  RenderInline {TT} at (0,0) size 20x17
                    RenderText {#text} at (528,6) size 20x17
                      text run at (528,6) width 20: "two"
                RenderText {#text} at (549,3) size 715x44
                  text run at (549,3) width 169: ", which should result in a"
                  text run at (3,25) width 272: "thin solid border on the right side of the "
                RenderInline {STRONG} at (0,0) size 23x22
                  RenderText {#text} at (275,25) size 23x22
                    text run at (275,25) width 23: "last"
                RenderText {#text} at (298,25) size 709x44
                  text run at (298,25) width 414: " box of the inline element (and the UA's default border on the"
                  text run at (3,47) width 124: "other three sides). "
                  text run at (127,47) width 110: "There is also an "
                RenderInline {SPAN} at (0,0) size 178x22
                  RenderText {#text} at (237,47) size 149x22
                    text run at (237,47) width 149: "inline element of class "
                  RenderInline {TT} at (0,0) size 29x17
                    RenderText {#text} at (386,50) size 29x17
                      text run at (386,50) width 29: "three"
                RenderText {#text} at (415,47) size 717x44
                  text run at (415,47) width 305: ", which should have no right border width or"
                  text run at (3,69) width 312: "visible border because no border style was set."
