layer at (0,0) size 800x600
  RenderView at (0,0) size 800x600
layer at (0,0) size 800x600
  RenderSVGRoot {svg} at (0,0) size 800x600
    RenderSVGContainer {g} at (25,6) size 775x506
      RenderSVGText {text} at (15,4) size 363x41 contains 1 chunk(s)
        RenderSVGInlineText {#text} at (0,0) size 363x41
          chunk 1 text run 1 at (15.00,35.00) startOffset 0 endOffset 26 width 363.00: "Basic: xml:space attribute"
      RenderSVGText {text} at (35,29) size 326x41 contains 1 chunk(s)
        RenderSVGInlineText {#text} at (0,0) size 326x41
          chunk 1 text run 1 at (35.00,60.00) startOffset 0 endOffset 22 width 325.20: "& whitespace handling."
      RenderSVGText {text} at (15,66) size 521x51 contains 1 chunk(s)
        RenderSVGInlineText {#text} at (0,0) size 521x51
          chunk 1 text run 1 at (15.00,105.00) startOffset 0 endOffset 32 width 520.80: " WS   with  indented lines.     "
      RenderSVGText {text} at (15,101) size 464x51 contains 1 chunk(s)
        RenderSVGInlineText {#text} at (0,0) size 464x51
          chunk 1 text run 1 at (15.00,140.00) startOffset 0 endOffset 27 width 463.80: " WS   with  indented lines."
      RenderSVGPath {rect} at (40,240) size 637x64 [stroke={[type=SOLID] [color=#000000]}] [x=25.00] [y=145.00] [width=380.00] [height=36.00]
      RenderSVGText {text} at (28,136) size 377x51 contains 1 chunk(s)
        RenderSVGInlineText {#text} at (0,0) size 377x51
          chunk 1 text run 1 at (28.00,175.00) startOffset 0 endOffset 20 width 376.80: "xml:space='preserve'"
      RenderSVGText {text} at (15,186) size 495x51 contains 1 chunk(s)
        RenderSVGInlineText {#text} at (0,0) size 495x51
          chunk 1 text run 1 at (15.00,225.00) startOffset 0 endOffset 29 width 495.00: "WS non-indented lines.       "
      RenderSVGText {text} at (15,221) size 416x51 contains 1 chunk(s)
        RenderSVGInlineText {#text} at (0,0) size 416x51
          chunk 1 text run 1 at (15.00,260.00) startOffset 0 endOffset 22 width 415.20: "WS non-indented lines."
      RenderSVGPath {rect} at (40,440) size 637x64 [stroke={[type=SOLID] [color=#000000]}] [x=25.00] [y=265.00] [width=380.00] [height=36.00]
      RenderSVGText {text} at (28,256) size 377x51 contains 1 chunk(s)
        RenderSVGInlineText {#text} at (0,0) size 377x51
          chunk 1 text run 1 at (28.00,295.00) startOffset 0 endOffset 20 width 376.80: "xml:space='preserve'"
    RenderSVGText {text} at (10,301) size 274x53 contains 1 chunk(s)
      RenderSVGInlineText {#text} at (0,0) size 274x53
        chunk 1 text run 1 at (10.00,340.00) startOffset 0 endOffset 16 width 273.60: "$Revision: 1.8 $"
    RenderSVGPath {rect} at (0,0) size 800x600 [stroke={[type=SOLID] [color=#000000]}] [x=1.00] [y=1.00] [width=478.00] [height=358.00]
selection start: position 0 of child 0 {#text} of child 1 {text} of child 13 {g} of child 29 {svg} of document
selection end:   position 16 of child 0 {#text} of child 15 {text} of child 29 {svg} of document
