layer at (0,0) size 480x360
  RenderView at (0,0) size 480x360
layer at (0,0) size 480x360
  RenderSVGRoot {svg} at (0,0) size 480x360
    RenderSVGContainer {g} at (0,0) size 0x0
    RenderSVGText {text} at (10,313) size 198x34 contains 1 chunk(s)
      RenderSVGInlineText {#text} at (0,0) size 198x34
        chunk 1 text run 1 at (10.00,340.00) startOffset 0 endOffset 16 width 198.00: "$Revision: 1.1 $"
    RenderSVGPath {rect} at (0,0) size 480x360 [stroke={[type=SOLID] [color=#000000]}] [x=1.00] [y=1.00] [width=478.00] [height=358.00]
    RenderSVGText {text} at (10,28) size 46x34 contains 1 chunk(s)
      RenderSVGInlineText {#text} at (0,0) size 46x34
        chunk 1 text run 1 at (10.00,55.00) startOffset 0 endOffset 3 width 46.00: "xml"
    RenderSVGText {text} at (340,28) size 46x34 contains 1 chunk(s)
      RenderSVGInlineText {#text} at (0,0) size 46x34
        chunk 1 text run 1 at (340.00,55.00) startOffset 0 endOffset 4 width 46.00: "true"
    RenderSVGText {text} at (10,83) size 129x34 contains 1 chunk(s)
      RenderSVGInlineText {#text} at (0,0) size 129x34
        chunk 1 text run 1 at (10.00,110.00) startOffset 0 endOffset 11 width 129.00: "stylesheets"
    RenderSVGText {text} at (340,83) size 46x34 contains 1 chunk(s)
      RenderSVGInlineText {#text} at (0,0) size 46x34
        chunk 1 text run 1 at (340.00,110.00) startOffset 0 endOffset 4 width 46.00: "true"
    RenderSVGText {text} at (10,138) size 70x34 contains 1 chunk(s)
      RenderSVGInlineText {#text} at (0,0) size 70x34
        chunk 1 text run 1 at (10.00,165.00) startOffset 0 endOffset 5 width 70.00: "views"
    RenderSVGText {text} at (340,138) size 46x34 contains 1 chunk(s)
      RenderSVGInlineText {#text} at (0,0) size 46x34
        chunk 1 text run 1 at (340.00,165.00) startOffset 0 endOffset 4 width 46.00: "true"
    RenderSVGText {text} at (10,193) size 52x34 contains 1 chunk(s)
      RenderSVGInlineText {#text} at (0,0) size 52x34
        chunk 1 text run 1 at (10.00,220.00) startOffset 0 endOffset 4 width 52.00: "css2"
    RenderSVGText {text} at (340,193) size 46x34 contains 1 chunk(s)
      RenderSVGInlineText {#text} at (0,0) size 46x34
        chunk 1 text run 1 at (340.00,220.00) startOffset 0 endOffset 4 width 46.00: "true"
    RenderSVGText {text} at (10,248) size 76x34 contains 1 chunk(s)
      RenderSVGInlineText {#text} at (0,0) size 76x34
        chunk 1 text run 1 at (10.00,275.00) startOffset 0 endOffset 6 width 76.00: "events"
    RenderSVGText {text} at (340,248) size 46x34 contains 1 chunk(s)
      RenderSVGInlineText {#text} at (0,0) size 46x34
        chunk 1 text run 1 at (340.00,275.00) startOffset 0 endOffset 4 width 46.00: "true"
