layer at (0,0) size 800x600
  RenderView at (0,0) size 800x600
layer at (0,0) size 450x500
  RenderSVGRoot {svg} at (40,36) size 370x421
    RenderSVGHiddenContainer {defs} at (0,0) size 0x0
      RenderSVGText {text} at (0,-14) size 44x18 contains 1 chunk(s)
        RenderSVGInlineText {#text} at (0,0) size 44x18
          chunk 1 text run 1 at (0.00,0.00) startOffset 0 endOffset 6 width 44.00: "sample"
    RenderSVGContainer {g} at (40,36) size 370x421
      RenderSVGText {text} at (151,36) size 148x18 contains 1 chunk(s)
        RenderSVGInlineText {#text} at (0,0) size 148x18
          chunk 1 (middle anchor) text run 1 at (151.00,50.00) startOffset 0 endOffset 22 width 148.00: "Text Layout Properties"
      RenderSVGText {text} at (170,65) size 110x13 contains 1 chunk(s)
        RenderSVGInlineText {#text} at (0,0) size 110x13
          chunk 1 (middle anchor) text run 1 at (170.00,75.00) startOffset 0 endOffset 26 width 110.00: "Explicit Glyph Positioning"
      RenderSVGContainer {g} at (40,88) size 111x39
        RenderSVGText {text} at (40,88) size 111x28 contains 1 chunk(s)
          RenderSVGTSpan {tspan} at (0,0) size 111x28
            RenderSVGInlineText {#text} at (0,0) size 111x28
              chunk 1 text run 1 at (40.00,110.00) startOffset 0 endOffset 1 width 9.00: "s"
              chunk 1 text run 1 at (60.00,110.00) startOffset 0 endOffset 1 width 11.00: "a"
              chunk 1 text run 1 at (80.00,110.00) startOffset 0 endOffset 1 width 19.00: "m"
              chunk 1 text run 1 at (105.00,110.00) startOffset 0 endOffset 1 width 12.00: "p"
              chunk 1 text run 1 at (125.00,110.00) startOffset 0 endOffset 1 width 7.00: "l"
              chunk 1 text run 1 at (140.00,110.00) startOffset 0 endOffset 1 width 11.00: "e"
        RenderSVGText {text} at (40,118) size 104x9 contains 1 chunk(s)
          RenderSVGInlineText {#text} at (0,0) size 104x9
            chunk 1 text run 1 at (40.00,125.00) startOffset 0 endOffset 30 width 104.00: "tspan x=\"40,60,80,105,125,140\""
      RenderSVGContainer {g} at (185,88) size 70x39
        RenderSVGText {text} at (185,88) size 69x28 contains 1 chunk(s)
          RenderSVGInlineText {#text} at (0,0) size 69x28
            chunk 1 text run 1 at (185.00,110.00) startOffset 0 endOffset 6 width 69.00: "sample"
        RenderSVGText {text} at (185,118) size 70x9 contains 1 chunk(s)
          RenderSVGInlineText {#text} at (0,0) size 70x9
            chunk 1 text run 1 at (185.00,125.00) startOffset 0 endOffset 22 width 70.00: "Serif, default spacing"
      RenderSVGContainer {g} at (290,88) size 119x39
        RenderSVGText {text} at (290,88) size 119x28 contains 1 chunk(s)
          RenderSVGTSpan {tspan} at (0,0) size 119x28
            RenderSVGInlineText {#text} at (0,0) size 119x28
              chunk 1 text run 1 at (290.00,110.00) startOffset 0 endOffset 1 width 9.00: "s"
              chunk 1 text run 2 at (309.00,110.00) startOffset 1 endOffset 2 width 11.00: "a"
              chunk 1 text run 3 at (330.00,110.00) startOffset 2 endOffset 3 width 19.00: "m"
              chunk 1 text run 4 at (359.00,110.00) startOffset 3 endOffset 4 width 12.00: "p"
              chunk 1 text run 5 at (381.00,110.00) startOffset 4 endOffset 5 width 7.00: "l"
              chunk 1 text run 6 at (398.00,110.00) startOffset 5 endOffset 6 width 11.00: "e"
        RenderSVGText {text} at (290,118) size 102x9 contains 1 chunk(s)
          RenderSVGInlineText {#text} at (0,0) size 102x9
            chunk 1 text run 1 at (290.00,125.00) startOffset 0 endOffset 29 width 102.00: "x=\"175\" dx=\"0,10,10,10,10,10\""
      RenderSVGText {text} at (102,140) size 246x13 contains 1 chunk(s)
        RenderSVGInlineText {#text} at (0,0) size 246x13
          chunk 1 (middle anchor) text run 1 at (102.00,150.00) startOffset 0 endOffset 59 width 246.00: "Letter Spacing Adjustment and Explicit Length Specification"
      RenderSVGContainer {g} at (40,158) size 112x39
        RenderSVGText {text} at (40,158) size 112x28 contains 1 chunk(s)
          RenderSVGInlineText {#text} at (0,0) size 112x28
            chunk 1 text run 1 at (40.00,180.00) startOffset 0 endOffset 1 width 9.00: "s"
            chunk 1 text run 2 at (57.50,180.00) startOffset 1 endOffset 2 width 11.00: "a"
            chunk 1 text run 3 at (77.00,180.00) startOffset 2 endOffset 3 width 19.00: "m"
            chunk 1 text run 4 at (104.50,180.00) startOffset 3 endOffset 4 width 12.00: "p"
            chunk 1 text run 5 at (125.00,180.00) startOffset 4 endOffset 5 width 7.00: "l"
            chunk 1 text run 6 at (140.50,180.00) startOffset 5 endOffset 6 width 11.00: "e"
        RenderSVGText {text} at (40,188) size 58x9 contains 1 chunk(s)
          RenderSVGInlineText {#text} at (0,0) size 58x9
            chunk 1 text run 1 at (40.00,195.00) startOffset 0 endOffset 16 width 58.00: "textLength=\"120\""
      RenderSVGContainer {g} at (185,158) size 70x39
        RenderSVGText {text} at (185,158) size 70x28 contains 1 chunk(s)
          RenderSVGInlineText {#text} at (0,0) size 70x28
            chunk 1 text run 1 at (185.00,180.00) startOffset 0 endOffset 1 width 9.00: "s"
            chunk 1 text run 2 at (194.17,180.00) startOffset 1 endOffset 2 width 11.00: "a"
            chunk 1 text run 3 at (205.33,180.00) startOffset 2 endOffset 3 width 19.00: "m"
            chunk 1 text run 4 at (224.50,180.00) startOffset 3 endOffset 4 width 12.00: "p"
            chunk 1 text run 5 at (236.67,180.00) startOffset 4 endOffset 5 width 7.00: "l"
            chunk 1 text run 6 at (243.83,180.00) startOffset 5 endOffset 6 width 11.00: "e"
        RenderSVGText {text} at (185,188) size 54x9 contains 1 chunk(s)
          RenderSVGInlineText {#text} at (0,0) size 54x9
            chunk 1 text run 1 at (185.00,195.00) startOffset 0 endOffset 15 width 54.00: "textLength=\"70\""
      RenderSVGContainer {g} at (290,158) size 119x39
        RenderSVGText {text} at (290,158) size 119x28 contains 1 chunk(s)
          RenderSVGInlineText {#text} at (0,0) size 119x28
            chunk 1 text run 1 at (290.00,180.00) startOffset 0 endOffset 1 width 9.00: "s"
            chunk 1 text run 2 at (309.00,180.00) startOffset 1 endOffset 2 width 11.00: "a"
            chunk 1 text run 3 at (330.00,180.00) startOffset 2 endOffset 3 width 19.00: "m"
            chunk 1 text run 4 at (359.00,180.00) startOffset 3 endOffset 4 width 12.00: "p"
            chunk 1 text run 5 at (381.00,180.00) startOffset 4 endOffset 5 width 7.00: "l"
            chunk 1 text run 6 at (398.00,180.00) startOffset 5 endOffset 6 width 11.00: "e"
        RenderSVGText {text} at (290,188) size 44x9 contains 1 chunk(s)
          RenderSVGInlineText {#text} at (0,0) size 44x9
            chunk 1 text run 1 at (290.00,195.00) startOffset 0 endOffset 12 width 44.00: "kerning=\"10\""
      RenderSVGContainer {g} at (40,203) size 120x49
        RenderSVGText {text} at (40,203) size 120x28 contains 1 chunk(s)
          RenderSVGInlineText {#text} at (0,0) size 120x28
            chunk 1 text run 1 at (40.00,225.00) startOffset 0 endOffset 6 width 69.00: "sample"
        RenderSVGText {text} at (40,233) size 114x19 contains 1 chunk(s)
          RenderSVGInlineText {#text} at (0,0) size 62x9
            chunk 1 text run 1 at (40.00,240.00) startOffset 0 endOffset 18 width 62.00: "textLength=\"120\", "
          RenderSVGTSpan {tspan} at (0,0) size 114x9
            RenderSVGInlineText {#text} at (0,10) size 114x9
              chunk 1 text run 1 at (40.00,250.00) startOffset 0 endOffset 31 width 114.00: "lengthAdjust=\"spacingAndGlyphs\""
      RenderSVGContainer {g} at (185,203) size 114x49
        RenderSVGText {text} at (185,203) size 70x28 contains 1 chunk(s)
          RenderSVGInlineText {#text} at (0,0) size 70x28
            chunk 1 text run 1 at (185.00,225.00) startOffset 0 endOffset 6 width 69.00: "sample"
        RenderSVGText {text} at (185,233) size 114x19 contains 1 chunk(s)
          RenderSVGInlineText {#text} at (0,0) size 56x9
            chunk 1 text run 1 at (185.00,240.00) startOffset 0 endOffset 16 width 56.00: "textLength=\"70\" "
          RenderSVGTSpan {tspan} at (0,0) size 114x9
            RenderSVGInlineText {#text} at (0,10) size 114x9
              chunk 1 text run 1 at (185.00,250.00) startOffset 0 endOffset 31 width 114.00: "lengthAdjust=\"spacingAndGlyphs\""
      RenderSVGContainer {g} at (290,203) size 120x39
        RenderSVGText {text} at (290,203) size 120x28 contains 1 chunk(s)
          RenderSVGInlineText {#text} at (0,0) size 120x28
            chunk 1 text run 1 at (290.00,225.00) startOffset 0 endOffset 1 width 9.00: "s"
            chunk 1 text run 2 at (309.00,225.00) startOffset 1 endOffset 2 width 11.00: "a"
            chunk 1 text run 3 at (330.00,225.00) startOffset 2 endOffset 3 width 19.00: "m"
            chunk 1 text run 4 at (359.00,225.00) startOffset 3 endOffset 4 width 12.00: "p"
            chunk 1 text run 5 at (381.00,225.00) startOffset 4 endOffset 5 width 7.00: "l"
            chunk 1 text run 6 at (398.00,225.00) startOffset 5 endOffset 6 width 11.00: "e"
        RenderSVGText {text} at (290,233) size 104x9 contains 1 chunk(s)
          RenderSVGInlineText {#text} at (0,0) size 104x9
            chunk 1 text run 1 at (290.00,240.00) startOffset 0 endOffset 29 width 104.00: "textLength=\"120\",kerning=\"10\""
      RenderSVGContainer {g} at (40,253) size 104x39
        RenderSVGText {text} at (40,253) size 104x28 contains 1 chunk(s)
          RenderSVGInlineText {#text} at (0,0) size 104x28
            chunk 1 text run 1 at (40.00,275.00) startOffset 0 endOffset 1 width 9.00: "s"
            chunk 1 text run 2 at (56.00,275.00) startOffset 1 endOffset 2 width 11.00: "a"
            chunk 1 text run 3 at (74.00,275.00) startOffset 2 endOffset 3 width 19.00: "m"
            chunk 1 text run 4 at (100.00,275.00) startOffset 3 endOffset 4 width 12.00: "p"
            chunk 1 text run 5 at (119.00,275.00) startOffset 4 endOffset 5 width 7.00: "l"
            chunk 1 text run 6 at (133.00,275.00) startOffset 5 endOffset 6 width 11.00: "e"
        RenderSVGText {text} at (40,283) size 76x9 contains 1 chunk(s)
          RenderSVGInlineText {#text} at (0,0) size 76x9
            chunk 1 text run 1 at (40.00,290.00) startOffset 0 endOffset 22 width 76.00: "letter-spacing=\"0.3em\""
      RenderSVGContainer {g} at (185,253) size 63x39
        RenderSVGText {text} at (185,253) size 54x28 contains 1 chunk(s)
          RenderSVGInlineText {#text} at (0,0) size 54x28
            chunk 1 text run 1 at (185.00,275.00) startOffset 0 endOffset 1 width 9.00: "s"
            chunk 1 text run 2 at (191.00,275.00) startOffset 1 endOffset 2 width 11.00: "a"
            chunk 1 text run 3 at (199.00,275.00) startOffset 2 endOffset 3 width 19.00: "m"
            chunk 1 text run 4 at (215.00,275.00) startOffset 3 endOffset 4 width 12.00: "p"
            chunk 1 text run 5 at (224.00,275.00) startOffset 4 endOffset 5 width 7.00: "l"
            chunk 1 text run 6 at (228.00,275.00) startOffset 5 endOffset 6 width 11.00: "e"
        RenderSVGText {text} at (185,283) size 63x9 contains 1 chunk(s)
          RenderSVGInlineText {#text} at (0,0) size 63x9
            chunk 1 text run 1 at (185.00,290.00) startOffset 0 endOffset 19 width 63.00: "letter-spacing=\"-3\""
      RenderSVGContainer {g} at (290,253) size 119x39
        RenderSVGText {text} at (290,253) size 119x28 contains 1 chunk(s)
          RenderSVGInlineText {#text} at (0,0) size 119x28
            chunk 1 text run 1 at (290.00,275.00) startOffset 0 endOffset 1 width 9.00: "s"
            chunk 1 text run 2 at (309.00,275.00) startOffset 1 endOffset 2 width 11.00: "a"
            chunk 1 text run 3 at (330.00,275.00) startOffset 2 endOffset 3 width 19.00: "m"
            chunk 1 text run 4 at (359.00,275.00) startOffset 3 endOffset 4 width 12.00: "p"
            chunk 1 text run 5 at (381.00,275.00) startOffset 4 endOffset 5 width 7.00: "l"
            chunk 1 text run 6 at (398.00,275.00) startOffset 5 endOffset 6 width 11.00: "e"
        RenderSVGText {text} at (290,283) size 64x9 contains 1 chunk(s)
          RenderSVGInlineText {#text} at (0,0) size 64x9
            chunk 1 text run 1 at (290.00,290.00) startOffset 0 endOffset 19 width 64.00: "letter-spacing=\"10\""
      RenderSVGText {text} at (171,310) size 108x13 contains 1 chunk(s)
        RenderSVGInlineText {#text} at (0,0) size 108x13
          chunk 1 (middle anchor) text run 1 at (171.50,320.00) startOffset 0 endOffset 23 width 107.00: "Word Spacing Adjustment"
      RenderSVGContainer {g} at (40,336) size 350x31
        RenderSVGText {text} at (40,336) size 350x18 contains 1 chunk(s)
          RenderSVGInlineText {#text} at (0,0) size 350x18
            chunk 1 text run 1 at (40.00,350.00) startOffset 0 endOffset 1 width 14.00: "W"
            chunk 1 text run 2 at (54.55,350.00) startOffset 1 endOffset 2 width 4.00: "i"
            chunk 1 text run 3 at (59.10,350.00) startOffset 2 endOffset 3 width 8.00: "d"
            chunk 1 text run 4 at (67.66,350.00) startOffset 3 endOffset 4 width 7.00: "e"
            chunk 1 text run 5 at (75.21,350.00) startOffset 4 endOffset 5 width 4.00: " "
            chunk 1 text run 6 at (124.76,350.00) startOffset 5 endOffset 6 width 6.00: "s"
            chunk 1 text run 7 at (131.31,350.00) startOffset 6 endOffset 7 width 7.00: "e"
            chunk 1 text run 8 at (138.86,350.00) startOffset 7 endOffset 8 width 8.00: "p"
            chunk 1 text run 9 at (147.41,350.00) startOffset 8 endOffset 9 width 7.00: "a"
            chunk 1 text run 10 at (154.97,350.00) startOffset 9 endOffset 10 width 5.00: "r"
            chunk 1 text run 11 at (160.52,350.00) startOffset 10 endOffset 11 width 7.00: "a"
            chunk 1 text run 12 at (168.07,350.00) startOffset 11 endOffset 12 width 4.00: "t"
            chunk 1 text run 13 at (172.62,350.00) startOffset 12 endOffset 13 width 4.00: "i"
            chunk 1 text run 14 at (177.17,350.00) startOffset 13 endOffset 14 width 8.00: "o"
            chunk 1 text run 15 at (185.72,350.00) startOffset 14 endOffset 15 width 8.00: "n"
            chunk 1 text run 16 at (194.28,350.00) startOffset 15 endOffset 16 width 4.00: " "
            chunk 1 text run 17 at (243.83,350.00) startOffset 16 endOffset 17 width 8.00: "b"
            chunk 1 text run 18 at (252.38,350.00) startOffset 17 endOffset 18 width 7.00: "e"
            chunk 1 text run 19 at (259.93,350.00) startOffset 18 endOffset 19 width 4.00: "t"
            chunk 1 text run 20 at (264.48,350.00) startOffset 19 endOffset 20 width 11.00: "w"
            chunk 1 text run 21 at (276.03,350.00) startOffset 20 endOffset 21 width 7.00: "e"
            chunk 1 text run 22 at (283.59,350.00) startOffset 21 endOffset 22 width 7.00: "e"
            chunk 1 text run 23 at (291.14,350.00) startOffset 22 endOffset 23 width 8.00: "n"
            chunk 1 text run 24 at (299.69,350.00) startOffset 23 endOffset 24 width 4.00: " "
            chunk 1 text run 25 at (349.24,350.00) startOffset 24 endOffset 25 width 11.00: "w"
            chunk 1 text run 26 at (360.79,350.00) startOffset 25 endOffset 26 width 8.00: "o"
            chunk 1 text run 27 at (369.34,350.00) startOffset 26 endOffset 27 width 5.00: "r"
            chunk 1 text run 28 at (374.90,350.00) startOffset 27 endOffset 28 width 8.00: "d"
            chunk 1 text run 29 at (383.45,350.00) startOffset 28 endOffset 29 width 6.00: "s"
        RenderSVGText {text} at (40,358) size 130x9 contains 1 chunk(s)
          RenderSVGInlineText {#text} at (0,0) size 130x9
            chunk 1 text run 1 at (40.00,365.00) startOffset 0 endOffset 35 width 130.00: "textLength=\"350\" word-spacing=\"3em\""
      RenderSVGContainer {g} at (40,381) size 346x31
        RenderSVGText {text} at (40,381) size 346x18 contains 1 chunk(s)
          RenderSVGInlineText {#text} at (0,0) size 346x18
            chunk 1 text run 1 at (40.00,395.00) startOffset 0 endOffset 1 width 11.00: "N"
            chunk 1 text run 2 at (55.90,395.00) startOffset 1 endOffset 2 width 7.00: "a"
            chunk 1 text run 3 at (67.81,395.00) startOffset 2 endOffset 3 width 5.00: "r"
            chunk 1 text run 4 at (77.71,395.00) startOffset 3 endOffset 4 width 5.00: "r"
            chunk 1 text run 5 at (87.61,395.00) startOffset 4 endOffset 5 width 8.00: "o"
            chunk 1 text run 6 at (100.52,395.00) startOffset 5 endOffset 6 width 11.00: "w"
            chunk 1 text run 7 at (116.42,395.00) startOffset 6 endOffset 7 width 4.00: " "
            chunk 1 text run 8 at (120.32,395.00) startOffset 7 endOffset 8 width 6.00: "s"
            chunk 1 text run 9 at (131.23,395.00) startOffset 8 endOffset 9 width 7.00: "e"
            chunk 1 text run 10 at (143.13,395.00) startOffset 9 endOffset 10 width 8.00: "p"
            chunk 1 text run 11 at (156.03,395.00) startOffset 10 endOffset 11 width 7.00: "a"
            chunk 1 text run 12 at (167.94,395.00) startOffset 11 endOffset 12 width 5.00: "r"
            chunk 1 text run 13 at (177.84,395.00) startOffset 12 endOffset 13 width 7.00: "a"
            chunk 1 text run 14 at (189.74,395.00) startOffset 13 endOffset 14 width 4.00: "t"
            chunk 1 text run 15 at (198.65,395.00) startOffset 14 endOffset 15 width 4.00: "i"
            chunk 1 text run 16 at (207.55,395.00) startOffset 15 endOffset 16 width 8.00: "o"
            chunk 1 text run 17 at (220.45,395.00) startOffset 16 endOffset 17 width 8.00: "n"
            chunk 1 text run 18 at (233.35,395.00) startOffset 17 endOffset 18 width 4.00: " "
            chunk 1 text run 19 at (237.26,395.00) startOffset 18 endOffset 19 width 8.00: "b"
            chunk 1 text run 20 at (250.16,395.00) startOffset 19 endOffset 20 width 7.00: "e"
            chunk 1 text run 21 at (262.06,395.00) startOffset 20 endOffset 21 width 4.00: "t"
            chunk 1 text run 22 at (270.97,395.00) startOffset 21 endOffset 22 width 11.00: "w"
            chunk 1 text run 23 at (286.87,395.00) startOffset 22 endOffset 23 width 7.00: "e"
            chunk 1 text run 24 at (298.77,395.00) startOffset 23 endOffset 24 width 7.00: "e"
            chunk 1 text run 25 at (310.68,395.00) startOffset 24 endOffset 25 width 8.00: "n"
            chunk 1 text run 26 at (323.58,395.00) startOffset 25 endOffset 26 width 4.00: " "
            chunk 1 text run 27 at (327.48,395.00) startOffset 26 endOffset 27 width 11.00: "w"
            chunk 1 text run 28 at (343.39,395.00) startOffset 27 endOffset 28 width 8.00: "o"
            chunk 1 text run 29 at (356.29,395.00) startOffset 28 endOffset 29 width 5.00: "r"
            chunk 1 text run 30 at (366.19,395.00) startOffset 29 endOffset 30 width 8.00: "d"
            chunk 1 text run 31 at (379.10,395.00) startOffset 30 endOffset 31 width 6.00: "s"
        RenderSVGText {text} at (40,403) size 123x9 contains 1 chunk(s)
          RenderSVGInlineText {#text} at (0,0) size 123x9
            chunk 1 text run 1 at (40.00,410.00) startOffset 0 endOffset 34 width 123.00: "textLength=\"350\" word-spacing=\"-5\""
      RenderSVGContainer {g} at (40,426) size 350x31
        RenderSVGText {text} at (40,426) size 350x18 contains 1 chunk(s)
          RenderSVGInlineText {#text} at (0,0) size 350x18
            chunk 1 text run 1 at (40.00,440.00) startOffset 0 endOffset 7 width 51.00: "Narrow "
            chunk 1 text run 2 at (86.00,440.00) startOffset 7 endOffset 18 width 68.00: "separation "
            chunk 1 text run 3 at (149.00,440.00) startOffset 18 endOffset 26 width 56.00: "between "
            chunk 1 text run 4 at (200.00,440.00) startOffset 26 endOffset 31 width 38.00: "words"
        RenderSVGText {text} at (40,448) size 239x9 contains 1 chunk(s)
          RenderSVGInlineText {#text} at (0,0) size 239x9
            chunk 1 text run 1 at (40.00,455.00) startOffset 0 endOffset 66 width 239.00: "textLength=\"350\" lengthAdjust=\"spacingAndGlyphs\" word-spacing=\"-5\""
    RenderSVGContainer {use} at (0,0) size 0x0
