layer at (0,0) size 800x600
  RenderView at (0,0) size 800x600
layer at (0,0) size 800x600
  RenderBlock {HTML} at (0,0) size 800x600
    RenderBody {BODY} at (8,8) size 784x584
      RenderBlock {P} at (0,0) size 784x19
        RenderText {#text} at (0,0) size 741x19
          text run at (0,0) width 651: "This tests that in a standalone media document with audio content, the media element repaints correctly "
          text run at (651,0) width 90: "while playing."
      RenderBlock (anonymous) at (0,35) size 784x334
        RenderPartObject {IFRAME} at (0,0) size 384x334 [border: (2px inset #000000)]
          layer at (0,0) size 380x330
            RenderView at (0,0) size 380x330
          layer at (0,0) size 380x330
            RenderBlock {HTML} at (0,0) size 380x330
              RenderBody {BODY} at (8,8) size 364x314 [bgcolor=#262626]
          layer at (40,164) size 300x1
            RenderVideo {VIDEO} at (40,164) size 300x1
          layer at (40,164) size 300x1
            RenderBlock (relative positioned) {DIV} at (0,0) size 300x1
          layer at (40,164) size 300x1 scrollHeight 20
            RenderFlexibleBox (positioned) {DIV} at (0,0) size 300x1
              RenderButton {INPUT} at (0,-19) size 20x20
              RenderFlexibleBox {DIV} at (20,-19) size 220x20 [border: (1px solid #FFFFFF33) none (1px solid #FFFFFF33)]
                RenderBlock (anonymous) at (1,0) size 65x30
                  RenderFlexibleBox {DIV} at (0,0) size 65x30
                    RenderBlock (anonymous) at (5,5) size 55x20
                      RenderText {#text} at (0,0) size 55x12
                        text run at (0,0) width 55: "00:00 / 00:01"
                RenderSlider {INPUT} at (66,0) size 153x20
                  RenderBlock {DIV} at (70,4) size 12x12
              RenderButton {INPUT} at (240,-19) size 20x20
              RenderButton {INPUT} at (260,-19) size 20x20
              RenderButton {INPUT} at (280,-19) size 20x20
        RenderText {#text} at (0,0) size 0x0
        RenderText {#text} at (0,0) size 0x0
