layer at (0,0) size 808x705
  RenderView at (0,0) size 784x584
layer at (0,0) size 784x584
  RenderBlock {HTML} at (0,0) size 784x584
layer at (8,8) size 768x568
  RenderBody {BODY} at (8,8) size 768x568
    RenderBlock {DIV} at (10,10) size 126x126 [border: (21px none #000000) (30px none #000000) (21px none #000000)]
    RenderText {#text} at (146,130) size 4x22
      text run at (146,130) width 4: " "
    RenderBlock {DIV} at (160,10) size 126x126 [border: (21px none #000000) (30px none #000000) (21px none #000000)]
    RenderText {#text} at (296,130) size 4x22
      text run at (296,130) width 4: " "
    RenderBR {BR} at (0,0) size 0x0
    RenderBlock {DIV} at (10,162) size 126x126 [border: (21px none #000000) (30px none #000000) (21px none #000000)]
    RenderText {#text} at (146,282) size 4x22
      text run at (146,282) width 4: " "
    RenderBlock {DIV} at (160,162) size 126x126 [border: (21px none #000000) (30px none #000000) (21px none #000000)]
    RenderText {#text} at (0,0) size 0x0
