layer at (0,0) size 800x600
  RenderView at (0,0) size 800x600
layer at (0,0) size 800x600
  RenderSVGRoot {svg} at (16,84) size 368x167
    RenderSVGHiddenContainer {defs} at (0,0) size 0x0
      RenderSVGResourcePattern {pattern} [id="dot"] [patternUnits=objectBoundingBox] [patternContentUnits=userSpaceOnUse]
        RenderSVGPath {circle} at (10,40) size 20x20 [fill={[type=SOLID] [color=#000000]}] [cx=20.00] [cy=50.00] [r=10.00]
    RenderSVGText {text} at (16,84) size 368x22 contains 1 chunk(s)
      RenderSVGInlineText {#text} at (0,0) size 368x22
        chunk 1 (middle anchor) text run 1 at (16.00,100.00) startOffset 0 endOffset 56 width 368.00: "There should be a black dot in the middle of the ellipse"
    RenderSVGPath {ellipse} at (179,149) size 42x102 [stroke={[type=SOLID] [color=#808080]}] [fill={[type=PATTERN] [id="dot"]}] [cx=200.00] [cy=200.00] [rx=20.00] [ry=50.00]
