layer at (0,0) size 800x600
  RenderView at (0,0) size 800x600
layer at (0,0) size 800x486
  RenderBlock {html} at (0,0) size 800x486
    RenderBody {body} at (8,16) size 784x462
      RenderBlock {p} at (0,0) size 784x44
        RenderText {#text} at (0,0) size 776x44
          text run at (0,0) width 776: "The svg area contained in the div element (red box), should fill out the whole area (two green rectangles, first: (0,0)-"
          text run at (0,22) width 714: "(50%,50%), second: (50%,50%)-(100%,100%)), especially after resizing the content box to a different size"
      RenderBlock {div} at (0,60) size 402x402 [border: (1px solid #FF0000)]
        RenderSVGRoot {svg} at (9,77) size 400x400
          RenderSVGHiddenContainer {defs} at (0,0) size 0x0
          RenderSVGContainer {use} at (9,77) size 400x400
            RenderSVGContainer {g} at (9,77) size 400x400
              RenderSVGViewportContainer {svg} at (9,77) size 400x400
                RenderSVGPath {rect} at (209,277) size 200x200 [fill={[type=SOLID] [color=#008000]}] [x=100.00] [y=100.00] [width=100.00] [height=100.00]
                RenderSVGPath {rect} at (9,77) size 200x200 [fill={[type=SOLID] [color=#008000]}] [x=0.00] [y=0.00] [width=100.00] [height=100.00]
        RenderText {#text} at (0,0) size 0x0
