layer at (0,0) size 800x600
  RenderView at (0,0) size 800x600
layer at (0,0) size 800x142
  RenderBlock {HTML} at (0,0) size 800x142
    RenderBody {BODY} at (8,16) size 784x118
      RenderBlock {P} at (0,0) size 784x38
        RenderText {#text} at (0,0) size 758x38
          text run at (0,0) width 758: "This tests that clicking in a contenteditable div will set the caret in the right position for RTL text in a RTL block. To test"
          text run at (0,19) width 465: "manually, click the right of the text. The caret should be on the right edge."
      RenderBlock {DIV} at (0,54) size 222x45 [border: (1px solid #000000)]
        RenderText {#text} at (11,11) size 75x23
          text run at (11,11) width 75 RTL: "\x{5E9}\x{5D3}\x{5D4} \x{5D1}\x{5D5}\x{5E8}"
      RenderBlock (anonymous) at (0,99) size 784x19
        RenderText {#text} at (0,0) size 39x19
          text run at (0,0) width 39: "PASS"
        RenderBR {BR} at (39,0) size 0x19
caret: position 7 of child 0 {#text} of child 3 {DIV} of body
