layer at (0,0) size 800x600
  RenderView at (0,0) size 800x600
layer at (0,0) size 800x600
  RenderBlock {HTML} at (0,0) size 800x600
    RenderBody {BODY} at (8,8) size 784x584
      RenderBlock {P} at (0,0) size 784x38
        RenderText {#text} at (0,0) size 776x38
          text run at (0,0) width 776: "This test ensures selection that crosses the shadow DOM boundary of a readonly input element cannot be made by a mouse"
          text run at (0,19) width 32: "drag."
      RenderBlock {P} at (0,54) size 784x38
        RenderText {#text} at (0,0) size 774x38
          text run at (0,0) width 774: "To manually test, select text by a mouse drag starting in \"hello\" and ending in \"world\". Selection should only extend inside"
          text run at (0,19) width 112: "the input element."
      RenderBlock {DIV} at (0,108) size 784x29
        RenderTextControl {INPUT} at (0,2) size 63x25 [bgcolor=#FFFFFF] [border: (2px inset #000000)]
        RenderText {#text} at (63,5) size 4x19
          text run at (63,5) width 4: " "
        RenderInline {SPAN} at (0,0) size 37x19
          RenderText {#text} at (67,5) size 37x19
            text run at (67,5) width 37: "world"
        RenderText {#text} at (0,0) size 0x0
layer at (11,121) size 57x19
  RenderBlock {DIV} at (3,3) size 57x19
    RenderText {#text} at (1,0) size 35x19
      text run at (1,0) width 35: "hello"
selection start: position 4 of child 0 {#text} of child 0 {DIV} of {#shadow-root} of child 1 {INPUT} of child 5 {DIV} of body
selection end:   position 5 of child 0 {#text} of child 0 {DIV} of {#shadow-root} of child 1 {INPUT} of child 5 {DIV} of body
