layer at (0,0) size 784x1112
  RenderView at (0,0) size 784x600
layer at (0,0) size 784x1112
  RenderBlock {HTML} at (0,0) size 784x1112
    RenderBody {BODY} at (8,8) size 768x1096
      RenderBlock (anonymous) at (0,0) size 768x22
        RenderText {#text} at (0,0) size 113x22
          text run at (0,0) width 113: "auto table cols=2"
      RenderTable {TABLE} at (0,22) size 555x32 [border: (1px outset #808080)]
        RenderTableSection {TBODY} at (1,1) size 553x30
          RenderTableRow {TR} at (0,2) size 553x26
            RenderTableCell {TD} at (2,2) size 272x26 [border: (1px inset #808080)] [r=0 c=0 rs=1 cs=1]
              RenderText {#text} at (2,2) size 268x22
                text run at (2,2) width 268: "auto auto auto auto auto auto auto auto"
            RenderTableCell {TD} at (276,2) size 171x26 [border: (1px inset #808080)] [r=0 c=1 rs=1 cs=1]
              RenderText {#text} at (2,2) size 167x22
                text run at (2,2) width 167: "auto-auto auto auto auto"
            RenderTableCell {TD} at (449,2) size 102x26 [border: (1px inset #808080)] [r=0 c=2 rs=1 cs=1]
              RenderText {#text} at (2,2) size 98x22
                text run at (2,2) width 98: "auto auto auto"
      RenderBlock (anonymous) at (0,54) size 768x44
        RenderBR {BR} at (0,0) size 0x22
        RenderText {#text} at (0,22) size 113x22
          text run at (0,22) width 113: "auto table cols=2"
      RenderTable {TABLE} at (0,98) size 215x32 [border: (1px outset #808080)]
        RenderTableSection {TBODY} at (1,1) size 213x30
          RenderTableRow {TR} at (0,2) size 213x26
            RenderTableCell {TD} at (2,2) size 34x26 [border: (1px inset #808080)] [r=0 c=0 rs=1 cs=1]
              RenderText {#text} at (2,2) size 30x22
                text run at (2,2) width 30: "auto"
            RenderTableCell {TD} at (38,2) size 69x26 [border: (1px inset #808080)] [r=0 c=1 rs=1 cs=1]
              RenderText {#text} at (2,2) size 65x22
                text run at (2,2) width 65: "auto-auto"
            RenderTableCell {TD} at (109,2) size 102x26 [border: (1px inset #808080)] [r=0 c=2 rs=1 cs=1]
              RenderText {#text} at (2,2) size 98x22
                text run at (2,2) width 98: "auto auto auto"
      RenderBlock (anonymous) at (0,130) size 768x44
        RenderBR {BR} at (0,0) size 0x22
        RenderText {#text} at (0,22) size 182x22
          text run at (0,22) width 182: "auto table 2 cols with 1*,1*"
      RenderTable {TABLE} at (0,174) size 215x32 [border: (1px outset #808080)]
        RenderTableCol {COLGROUP} at (0,0) size 0x0
          RenderTableCol {COL} at (0,0) size 0x0
          RenderTableCol {COL} at (0,0) size 0x0
        RenderTableSection {TBODY} at (1,1) size 213x30
          RenderTableRow {TR} at (0,2) size 213x26
            RenderTableCell {TD} at (2,2) size 34x26 [border: (1px inset #808080)] [r=0 c=0 rs=1 cs=1]
              RenderText {#text} at (2,2) size 30x22
                text run at (2,2) width 30: "auto"
            RenderTableCell {TD} at (38,2) size 69x26 [border: (1px inset #808080)] [r=0 c=1 rs=1 cs=1]
              RenderText {#text} at (2,2) size 65x22
                text run at (2,2) width 65: "auto-auto"
            RenderTableCell {TD} at (109,2) size 102x26 [border: (1px inset #808080)] [r=0 c=2 rs=1 cs=1]
              RenderText {#text} at (2,2) size 98x22
                text run at (2,2) width 98: "auto auto auto"
      RenderBlock (anonymous) at (0,206) size 768x44
        RenderBR {BR} at (0,0) size 0x22
        RenderText {#text} at (0,22) size 182x22
          text run at (0,22) width 182: "auto table 2 cols with 2*,1*"
      RenderTable {TABLE} at (0,250) size 215x32 [border: (1px outset #808080)]
        RenderTableCol {COLGROUP} at (0,0) size 0x0
          RenderTableCol {COL} at (0,0) size 0x0
          RenderTableCol {COL} at (0,0) size 0x0
        RenderTableSection {TBODY} at (1,1) size 213x30
          RenderTableRow {TR} at (0,2) size 213x26
            RenderTableCell {TD} at (2,2) size 34x26 [border: (1px inset #808080)] [r=0 c=0 rs=1 cs=1]
              RenderText {#text} at (2,2) size 30x22
                text run at (2,2) width 30: "auto"
            RenderTableCell {TD} at (38,2) size 69x26 [border: (1px inset #808080)] [r=0 c=1 rs=1 cs=1]
              RenderText {#text} at (2,2) size 65x22
                text run at (2,2) width 65: "auto-auto"
            RenderTableCell {TD} at (109,2) size 102x26 [border: (1px inset #808080)] [r=0 c=2 rs=1 cs=1]
              RenderText {#text} at (2,2) size 98x22
                text run at (2,2) width 98: "auto auto auto"
      RenderBlock (anonymous) at (0,282) size 768x44
        RenderBR {BR} at (0,0) size 0x22
        RenderText {#text} at (0,22) size 116x22
          text run at (0,22) width 116: "fixed table cols=2"
      RenderTable {TABLE} at (0,326) size 400x32 [border: (1px outset #808080)]
        RenderTableSection {TBODY} at (1,1) size 398x30
          RenderTableRow {TR} at (0,2) size 398x26
            RenderTableCell {TD} at (2,2) size 64x26 [border: (1px inset #808080)] [r=0 c=0 rs=1 cs=1]
              RenderText {#text} at (2,2) size 30x22
                text run at (2,2) width 30: "auto"
            RenderTableCell {TD} at (68,2) size 131x26 [border: (1px inset #808080)] [r=0 c=1 rs=1 cs=1]
              RenderText {#text} at (2,2) size 65x22
                text run at (2,2) width 65: "auto-auto"
            RenderTableCell {TD} at (201,2) size 195x26 [border: (1px inset #808080)] [r=0 c=2 rs=1 cs=1]
              RenderText {#text} at (2,2) size 98x22
                text run at (2,2) width 98: "auto auto auto"
      RenderBlock (anonymous) at (0,358) size 768x44
        RenderBR {BR} at (0,0) size 0x22
        RenderText {#text} at (0,22) size 113x22
          text run at (0,22) width 113: "auto table cols=3"
      RenderTable {TABLE} at (0,402) size 215x32 [border: (1px outset #808080)]
        RenderTableSection {TBODY} at (1,1) size 213x30
          RenderTableRow {TR} at (0,2) size 213x26
            RenderTableCell {TD} at (2,2) size 34x26 [border: (1px inset #808080)] [r=0 c=0 rs=1 cs=1]
              RenderText {#text} at (2,2) size 30x22
                text run at (2,2) width 30: "auto"
            RenderTableCell {TD} at (38,2) size 69x26 [border: (1px inset #808080)] [r=0 c=1 rs=1 cs=1]
              RenderText {#text} at (2,2) size 65x22
                text run at (2,2) width 65: "auto-auto"
            RenderTableCell {TD} at (109,2) size 102x26 [border: (1px inset #808080)] [r=0 c=2 rs=1 cs=1]
              RenderText {#text} at (2,2) size 98x22
                text run at (2,2) width 98: "auto auto auto"
      RenderBlock (anonymous) at (0,434) size 768x44
        RenderBR {BR} at (0,0) size 0x22
        RenderText {#text} at (0,22) size 116x22
          text run at (0,22) width 116: "fixed table cols=3"
      RenderTable {TABLE} at (0,478) size 400x32 [border: (1px outset #808080)]
        RenderTableSection {TBODY} at (1,1) size 398x30
          RenderTableRow {TR} at (0,2) size 398x26
            RenderTableCell {TD} at (2,2) size 64x26 [border: (1px inset #808080)] [r=0 c=0 rs=1 cs=1]
              RenderText {#text} at (2,2) size 30x22
                text run at (2,2) width 30: "auto"
            RenderTableCell {TD} at (68,2) size 131x26 [border: (1px inset #808080)] [r=0 c=1 rs=1 cs=1]
              RenderText {#text} at (2,2) size 65x22
                text run at (2,2) width 65: "auto-auto"
            RenderTableCell {TD} at (201,2) size 195x26 [border: (1px inset #808080)] [r=0 c=2 rs=1 cs=1]
              RenderText {#text} at (2,2) size 98x22
                text run at (2,2) width 98: "auto auto auto"
      RenderBlock (anonymous) at (0,510) size 768x44
        RenderBR {BR} at (0,0) size 0x22
        RenderText {#text} at (0,22) size 113x22
          text run at (0,22) width 113: "auto table cols=3"
      RenderTable {TABLE} at (0,554) size 385x32 [border: (1px outset #808080)]
        RenderTableSection {TBODY} at (1,1) size 383x30
          RenderTableRow {TR} at (0,2) size 383x26
            RenderTableCell {TD} at (2,2) size 204x26 [border: (1px inset #808080)] [r=0 c=0 rs=1 cs=1]
              RenderText {#text} at (2,2) size 24x22
                text run at (2,2) width 24: "200"
            RenderTableCell {TD} at (208,2) size 69x26 [border: (1px inset #808080)] [r=0 c=1 rs=1 cs=1]
              RenderText {#text} at (2,2) size 65x22
                text run at (2,2) width 65: "auto-auto"
            RenderTableCell {TD} at (279,2) size 102x26 [border: (1px inset #808080)] [r=0 c=2 rs=1 cs=1]
              RenderText {#text} at (2,2) size 98x22
                text run at (2,2) width 98: "auto auto auto"
      RenderBlock (anonymous) at (0,586) size 768x44
        RenderBR {BR} at (0,0) size 0x22
        RenderText {#text} at (0,22) size 116x22
          text run at (0,22) width 116: "fixed table cols=3"
      RenderTable {TABLE} at (0,630) size 400x32 [border: (1px outset #808080)]
        RenderTableSection {TBODY} at (1,1) size 398x30
          RenderTableRow {TR} at (0,2) size 398x26
            RenderTableCell {TD} at (2,2) size 204x26 [border: (1px inset #808080)] [r=0 c=0 rs=1 cs=1]
              RenderText {#text} at (2,2) size 24x22
                text run at (2,2) width 24: "200"
            RenderTableCell {TD} at (208,2) size 75x26 [border: (1px inset #808080)] [r=0 c=1 rs=1 cs=1]
              RenderText {#text} at (2,2) size 65x22
                text run at (2,2) width 65: "auto-auto"
            RenderTableCell {TD} at (285,2) size 111x26 [border: (1px inset #808080)] [r=0 c=2 rs=1 cs=1]
              RenderText {#text} at (2,2) size 98x22
                text run at (2,2) width 98: "auto auto auto"
      RenderBlock (anonymous) at (0,662) size 768x44
        RenderBR {BR} at (0,0) size 0x22
        RenderText {#text} at (0,22) size 113x22
          text run at (0,22) width 113: "auto table cols=2"
      RenderTable {TABLE} at (0,706) size 317x32 [border: (1px outset #808080)]
        RenderTableSection {TBODY} at (1,1) size 315x30
          RenderTableRow {TR} at (0,2) size 315x26
            RenderTableCell {TD} at (2,2) size 34x26 [border: (1px inset #808080)] [r=0 c=0 rs=1 cs=1]
              RenderText {#text} at (2,2) size 30x22
                text run at (2,2) width 30: "auto"
            RenderTableCell {TD} at (38,2) size 69x26 [border: (1px inset #808080)] [r=0 c=1 rs=1 cs=1]
              RenderText {#text} at (2,2) size 65x22
                text run at (2,2) width 65: "auto-auto"
            RenderTableCell {TD} at (109,2) size 204x26 [border: (1px inset #808080)] [r=0 c=2 rs=1 cs=1]
              RenderText {#text} at (2,2) size 24x22
                text run at (2,2) width 24: "200"
      RenderBlock (anonymous) at (0,738) size 768x44
        RenderBR {BR} at (0,0) size 0x22
        RenderText {#text} at (0,22) size 116x22
          text run at (0,22) width 116: "fixed table cols=2"
      RenderTable {TABLE} at (0,782) size 400x32 [border: (1px outset #808080)]
        RenderTableSection {TBODY} at (1,1) size 398x30
          RenderTableRow {TR} at (0,2) size 398x26
            RenderTableCell {TD} at (2,2) size 61x26 [border: (1px inset #808080)] [r=0 c=0 rs=1 cs=1]
              RenderText {#text} at (2,2) size 30x22
                text run at (2,2) width 30: "auto"
            RenderTableCell {TD} at (65,2) size 125x26 [border: (1px inset #808080)] [r=0 c=1 rs=1 cs=1]
              RenderText {#text} at (2,2) size 65x22
                text run at (2,2) width 65: "auto-auto"
            RenderTableCell {TD} at (192,2) size 204x26 [border: (1px inset #808080)] [r=0 c=2 rs=1 cs=1]
              RenderText {#text} at (2,2) size 24x22
                text run at (2,2) width 24: "200"
      RenderBlock (anonymous) at (0,814) size 768x22
        RenderText {#text} at (0,0) size 67x22
          text run at (0,0) width 67: "auto table"
      RenderTable {TABLE} at (0,836) size 90x32 [border: (1px outset #808080)]
        RenderTableSection {TBODY} at (1,1) size 88x30
          RenderTableRow {TR} at (0,2) size 88x26
            RenderTableCell {TD} at (2,2) size 48x26 [border: (1px inset #808080)] [r=0 c=0 rs=1 cs=1]
              RenderText {#text} at (2,2) size 44x22
                text run at (2,2) width 44: "0 0 0 0"
            RenderTableCell {TD} at (52,2) size 34x26 [border: (1px inset #808080)] [r=0 c=1 rs=1 cs=1]
              RenderText {#text} at (2,2) size 30x22
                text run at (2,2) width 30: "auto"
      RenderBlock (anonymous) at (0,868) size 768x44
        RenderBR {BR} at (0,0) size 0x22
        RenderText {#text} at (0,22) size 67x22
          text run at (0,22) width 67: "auto table"
      RenderTable {TABLE} at (0,912) size 154x32 [border: (1px outset #808080)]
        RenderTableSection {TBODY} at (1,1) size 152x30
          RenderTableRow {TR} at (0,2) size 152x26
            RenderTableCell {TD} at (2,2) size 112x26 [border: (1px inset #808080)] [r=0 c=0 rs=1 cs=1]
              RenderText {#text} at (2,2) size 108x22
                text run at (2,2) width 108: "0% 0% 0% 0%"
            RenderTableCell {TD} at (116,2) size 34x26 [border: (1px inset #808080)] [r=0 c=1 rs=1 cs=1]
              RenderText {#text} at (2,2) size 30x22
                text run at (2,2) width 30: "auto"
      RenderBlock (anonymous) at (0,944) size 768x44
        RenderBR {BR} at (0,0) size 0x22
        RenderText {#text} at (0,22) size 67x22
          text run at (0,22) width 67: "auto table"
      RenderTable {TABLE} at (0,988) size 85x32 [border: (1px outset #808080)]
        RenderTableCol {COLGROUP} at (0,0) size 0x0
          RenderTableCol {COL} at (0,0) size 0x0
        RenderTableSection {TBODY} at (1,1) size 83x30
          RenderTableRow {TR} at (0,2) size 83x26
            RenderTableCell {TD} at (2,2) size 43x26 [border: (1px inset #808080)] [r=0 c=0 rs=1 cs=1]
              RenderText {#text} at (2,2) size 39x22
                text run at (2,2) width 39: "0* col"
            RenderTableCell {TD} at (47,2) size 34x26 [border: (1px inset #808080)] [r=0 c=1 rs=1 cs=1]
              RenderText {#text} at (2,2) size 30x22
                text run at (2,2) width 30: "auto"
      RenderBlock (anonymous) at (0,1020) size 768x44
        RenderBR {BR} at (0,0) size 0x22
        RenderText {#text} at (0,22) size 70x22
          text run at (0,22) width 70: "fixed table"
      RenderTable {TABLE} at (0,1064) size 200x32 [border: (1px outset #808080)]
        RenderTableCol {COLGROUP} at (0,0) size 0x0
          RenderTableCol {COL} at (0,0) size 0x0
        RenderTableSection {TBODY} at (1,1) size 198x30
          RenderTableRow {TR} at (0,2) size 198x26
            RenderTableCell {TD} at (2,2) size 107x26 [border: (1px inset #808080)] [r=0 c=0 rs=1 cs=1]
              RenderText {#text} at (2,2) size 39x22
                text run at (2,2) width 39: "0* col"
            RenderTableCell {TD} at (111,2) size 85x26 [border: (1px inset #808080)] [r=0 c=1 rs=1 cs=1]
              RenderText {#text} at (2,2) size 30x22
                text run at (2,2) width 30: "auto"
