layer at (0,0) size 2026x2450
  RenderView at (0,0) size 784x584
layer at (0,0) size 784x2450
  RenderBlock {HTML} at (0,0) size 784x2450
    RenderBody {BODY} at (8,8) size 768x2434
      RenderBlock {H2} at (0,0) size 768x28
        RenderText {#text} at (0,0) size 138x28
          text run at (0,0) width 138: "word-spacing"
      RenderBlock (floating) {PRE} at (0,60) size 1224x168
        RenderBlock {H3} at (0,15) size 1224x18
          RenderText {#text} at (0,0) size 204x18
            text run at (0,0) width 204: "In a floated pre"
        RenderBlock (anonymous) at (0,48) size 1224x120
          RenderText {#text} at (0,0) size 220x30
            text run at (0,0) width 0: " "
            text run at (0,15) width 220: "Word   spacing test "
          RenderInline {EM} at (0,0) size 24x15
            RenderText {#text} at (220,15) size 24x15
              text run at (220,15) width 24: "for"
          RenderText {#text} at (264,15) size 8x15
            text run at (264,15) width 8: " "
          RenderInline {STRONG} at (0,0) size 64x15
            RenderText {#text} at (272,15) size 64x15
              text run at (272,15) width 64: "elements"
          RenderText {#text} at (356,15) size 8x15
            text run at (356,15) width 8: " "
          RenderInline {TT} at (0,0) size 48x15
            RenderText {#text} at (364,15) size 48x15
              text run at (364,15) width 48: "within"
          RenderText {#text} at (432,15) size 584x30
            text run at (432,15) width 132: " elements too."
            text run at (584,15) width 0: " "
            text run at (0,30) width 220: "Word   spacing test "
          RenderInline {EM} at (0,0) size 24x15
            RenderText {#text} at (220,30) size 24x15
              text run at (220,30) width 24: "for"
          RenderText {#text} at (264,30) size 8x15
            text run at (264,30) width 8: " "
          RenderInline {STRONG} at (0,0) size 64x15
            RenderText {#text} at (272,30) size 64x15
              text run at (272,30) width 64: "elements"
          RenderText {#text} at (356,30) size 8x15
            text run at (356,30) width 8: " "
          RenderInline {TT} at (0,0) size 48x15
            RenderText {#text} at (364,30) size 48x15
              text run at (364,30) width 48: "within"
          RenderText {#text} at (432,30) size 100x15
            text run at (432,30) width 100: " elements "
          RenderText {#text} at (532,30) size 1032x30
            text run at (532,30) width 480: " too. (with comment between elements and too)"
            text run at (1032,30) width 0: " "
            text run at (0,45) width 220: "Word   spacing test "
          RenderInline {EM} at (0,0) size 24x15
            RenderText {#text} at (220,45) size 24x15
              text run at (220,45) width 24: "for"
          RenderText {#text} at (264,45) size 8x15
            text run at (264,45) width 8: " "
          RenderInline {STRONG} at (0,0) size 64x15
            RenderText {#text} at (272,45) size 64x15
              text run at (272,45) width 64: "elements"
          RenderText {#text} at (356,45) size 8x15
            text run at (356,45) width 8: " "
          RenderInline {TT} at (0,0) size 48x15
            RenderText {#text} at (364,45) size 48x15
              text run at (364,45) width 48: "within"
          RenderText {#text} at (432,45) size 72x15
            text run at (432,45) width 72: " elements"
          RenderText {#text} at (524,45) size 1260x30
            text run at (524,45) width 716: " too. (with comment (no preceeding space) between elements and too)"
            text run at (1260,45) width 0: " "
            text run at (0,60) width 220: "Word   spacing test "
          RenderInline {EM} at (0,0) size 24x15
            RenderText {#text} at (220,60) size 24x15
              text run at (220,60) width 24: "for"
          RenderText {#text} at (264,60) size 8x15
            text run at (264,60) width 8: " "
          RenderInline {STRONG} at (0,0) size 64x15
            RenderText {#text} at (272,60) size 64x15
              text run at (272,60) width 64: "elements"
          RenderText {#text} at (356,60) size 8x15
            text run at (356,60) width 8: " "
          RenderInline {TT} at (0,0) size 48x15
            RenderText {#text} at (364,60) size 48x15
              text run at (364,60) width 48: "within"
          RenderText {#text} at (432,60) size 100x15
            text run at (432,60) width 100: " elements "
          RenderText {#text} at (532,60) size 712x15
            text run at (532,60) width 692: "too. (with comment (no trailing space) between elements and too)"
            text run at (1244,60) width 0: " "
          RenderInline {SPAN} at (0,0) size 336x15
            RenderText {#text} at (0,75) size 220x15
              text run at (0,75) width 220: "Word   spacing test "
            RenderInline {EM} at (0,0) size 24x15
              RenderText {#text} at (220,75) size 24x15
                text run at (220,75) width 24: "for"
            RenderText {#text} at (264,75) size 8x15
              text run at (264,75) width 8: " "
            RenderInline {STRONG} at (0,0) size 64x15
              RenderText {#text} at (272,75) size 64x15
                text run at (272,75) width 64: "elements"
          RenderText {#text} at (356,75) size 8x15
            text run at (356,75) width 8: " "
          RenderInline {TT} at (0,0) size 48x15
            RenderText {#text} at (364,75) size 48x15
              text run at (364,75) width 48: "within"
          RenderText {#text} at (432,75) size 1076x30
            text run at (432,75) width 624: " elements too. (with monospace font from Word to elements)"
            text run at (1076,75) width 0: " "
            text run at (0,90) width 220: "Word   spacing test "
          RenderInline {SPAN} at (0,0) size 192x15
            RenderInline {EM} at (0,0) size 24x15
              RenderText {#text} at (220,90) size 24x15
                text run at (220,90) width 24: "for"
            RenderText {#text} at (264,90) size 8x15
              text run at (264,90) width 8: " "
            RenderInline {STRONG} at (0,0) size 64x15
              RenderText {#text} at (272,90) size 64x15
                text run at (272,90) width 64: "elements"
            RenderText {#text} at (356,90) size 8x15
              text run at (356,90) width 8: " "
            RenderInline {TT} at (0,0) size 48x15
              RenderText {#text} at (364,90) size 48x15
                text run at (364,90) width 48: "within"
          RenderText {#text} at (432,90) size 1052x30
            text run at (432,90) width 600: " elements too. (with monospace font from for to within)"
            text run at (1052,90) width 0: " "
            text run at (0,105) width 220: "Word   spacing test "
          RenderInline {EM} at (0,0) size 24x15
            RenderText {#text} at (220,105) size 24x15
              text run at (220,105) width 24: "for"
          RenderText {#text} at (264,105) size 8x15
            text run at (264,105) width 8: " "
          RenderInline {STRONG} at (0,0) size 64x15
            RenderText {#text} at (272,105) size 64x15
              text run at (272,105) width 64: "elements"
          RenderText {#text} at (356,105) size 8x15
            text run at (356,105) width 8: " "
          RenderInline {SPAN} at (0,0) size 192x15
            RenderInline {TT} at (0,0) size 48x15
              RenderText {#text} at (364,105) size 48x15
                text run at (364,105) width 48: "within"
            RenderText {#text} at (432,105) size 124x15
              text run at (432,105) width 124: " elements too"
          RenderText {#text} at (556,105) size 512x15
            text run at (556,105) width 492: ". (with monospace font from elements to too)"
            text run at (1068,105) width 0: " "
      RenderBlock (anonymous) at (0,47) size 768x194
        RenderBR {BR} at (1224,0) size 0x19
      RenderBlock {PRE} at (0,256) size 768x153
        RenderBlock {H3} at (0,0) size 768x18
          RenderText {#text} at (0,0) size 240x18
            text run at (0,0) width 240: "In an un-floated pre"
        RenderBlock (anonymous) at (0,33) size 768x120
          RenderText {#text} at (0,0) size 220x30
            text run at (0,0) width 0: " "
            text run at (0,15) width 220: "Word   spacing test "
          RenderInline {EM} at (0,0) size 24x15
            RenderText {#text} at (220,15) size 24x15
              text run at (220,15) width 24: "for"
          RenderText {#text} at (264,15) size 8x15
            text run at (264,15) width 8: " "
          RenderInline {STRONG} at (0,0) size 64x15
            RenderText {#text} at (272,15) size 64x15
              text run at (272,15) width 64: "elements"
          RenderText {#text} at (356,15) size 8x15
            text run at (356,15) width 8: " "
          RenderInline {TT} at (0,0) size 48x15
            RenderText {#text} at (364,15) size 48x15
              text run at (364,15) width 48: "within"
          RenderText {#text} at (432,15) size 584x30
            text run at (432,15) width 132: " elements too."
            text run at (584,15) width 0: " "
            text run at (0,30) width 220: "Word   spacing test "
          RenderInline {EM} at (0,0) size 24x15
            RenderText {#text} at (220,30) size 24x15
              text run at (220,30) width 24: "for"
          RenderText {#text} at (264,30) size 8x15
            text run at (264,30) width 8: " "
          RenderInline {STRONG} at (0,0) size 64x15
            RenderText {#text} at (272,30) size 64x15
              text run at (272,30) width 64: "elements"
          RenderText {#text} at (356,30) size 8x15
            text run at (356,30) width 8: " "
          RenderInline {TT} at (0,0) size 48x15
            RenderText {#text} at (364,30) size 48x15
              text run at (364,30) width 48: "within"
          RenderText {#text} at (432,30) size 100x15
            text run at (432,30) width 100: " elements "
          RenderText {#text} at (532,30) size 1032x30
            text run at (532,30) width 480: " too. (with comment between elements and too)"
            text run at (1032,30) width 0: " "
            text run at (0,45) width 220: "Word   spacing test "
          RenderInline {EM} at (0,0) size 24x15
            RenderText {#text} at (220,45) size 24x15
              text run at (220,45) width 24: "for"
          RenderText {#text} at (264,45) size 8x15
            text run at (264,45) width 8: " "
          RenderInline {STRONG} at (0,0) size 64x15
            RenderText {#text} at (272,45) size 64x15
              text run at (272,45) width 64: "elements"
          RenderText {#text} at (356,45) size 8x15
            text run at (356,45) width 8: " "
          RenderInline {TT} at (0,0) size 48x15
            RenderText {#text} at (364,45) size 48x15
              text run at (364,45) width 48: "within"
          RenderText {#text} at (432,45) size 72x15
            text run at (432,45) width 72: " elements"
          RenderText {#text} at (524,45) size 1260x30
            text run at (524,45) width 716: " too. (with comment (no preceeding space) between elements and too)"
            text run at (1260,45) width 0: " "
            text run at (0,60) width 220: "Word   spacing test "
          RenderInline {EM} at (0,0) size 24x15
            RenderText {#text} at (220,60) size 24x15
              text run at (220,60) width 24: "for"
          RenderText {#text} at (264,60) size 8x15
            text run at (264,60) width 8: " "
          RenderInline {STRONG} at (0,0) size 64x15
            RenderText {#text} at (272,60) size 64x15
              text run at (272,60) width 64: "elements"
          RenderText {#text} at (356,60) size 8x15
            text run at (356,60) width 8: " "
          RenderInline {TT} at (0,0) size 48x15
            RenderText {#text} at (364,60) size 48x15
              text run at (364,60) width 48: "within"
          RenderText {#text} at (432,60) size 100x15
            text run at (432,60) width 100: " elements "
          RenderText {#text} at (532,60) size 712x15
            text run at (532,60) width 692: "too. (with comment (no trailing space) between elements and too)"
            text run at (1244,60) width 0: " "
          RenderInline {SPAN} at (0,0) size 336x15
            RenderText {#text} at (0,75) size 220x15
              text run at (0,75) width 220: "Word   spacing test "
            RenderInline {EM} at (0,0) size 24x15
              RenderText {#text} at (220,75) size 24x15
                text run at (220,75) width 24: "for"
            RenderText {#text} at (264,75) size 8x15
              text run at (264,75) width 8: " "
            RenderInline {STRONG} at (0,0) size 64x15
              RenderText {#text} at (272,75) size 64x15
                text run at (272,75) width 64: "elements"
          RenderText {#text} at (356,75) size 8x15
            text run at (356,75) width 8: " "
          RenderInline {TT} at (0,0) size 48x15
            RenderText {#text} at (364,75) size 48x15
              text run at (364,75) width 48: "within"
          RenderText {#text} at (432,75) size 1076x30
            text run at (432,75) width 624: " elements too. (with monospace font from Word to elements)"
            text run at (1076,75) width 0: " "
            text run at (0,90) width 220: "Word   spacing test "
          RenderInline {SPAN} at (0,0) size 192x15
            RenderInline {EM} at (0,0) size 24x15
              RenderText {#text} at (220,90) size 24x15
                text run at (220,90) width 24: "for"
            RenderText {#text} at (264,90) size 8x15
              text run at (264,90) width 8: " "
            RenderInline {STRONG} at (0,0) size 64x15
              RenderText {#text} at (272,90) size 64x15
                text run at (272,90) width 64: "elements"
            RenderText {#text} at (356,90) size 8x15
              text run at (356,90) width 8: " "
            RenderInline {TT} at (0,0) size 48x15
              RenderText {#text} at (364,90) size 48x15
                text run at (364,90) width 48: "within"
          RenderText {#text} at (432,90) size 1052x30
            text run at (432,90) width 600: " elements too. (with monospace font from for to within)"
            text run at (1052,90) width 0: " "
            text run at (0,105) width 220: "Word   spacing test "
          RenderInline {EM} at (0,0) size 24x15
            RenderText {#text} at (220,105) size 24x15
              text run at (220,105) width 24: "for"
          RenderText {#text} at (264,105) size 8x15
            text run at (264,105) width 8: " "
          RenderInline {STRONG} at (0,0) size 64x15
            RenderText {#text} at (272,105) size 64x15
              text run at (272,105) width 64: "elements"
          RenderText {#text} at (356,105) size 8x15
            text run at (356,105) width 8: " "
          RenderInline {SPAN} at (0,0) size 192x15
            RenderInline {TT} at (0,0) size 48x15
              RenderText {#text} at (364,105) size 48x15
                text run at (364,105) width 48: "within"
            RenderText {#text} at (432,105) size 124x15
              text run at (432,105) width 124: " elements too"
          RenderText {#text} at (556,105) size 512x15
            text run at (556,105) width 492: ". (with monospace font from elements to too)"
            text run at (1068,105) width 0: " "
      RenderBlock (anonymous) at (0,422) size 768x0
        RenderInline {SPAN} at (0,0) size 0x0
          RenderText {#text} at (0,0) size 0x0
      RenderBlock (anonymous) at (0,427) size 768x22
        RenderBlock {H3} at (0,0) size 768x22
          RenderText {#text} at (0,0) size 117x22
            text run at (0,0) width 117: "In a span"
      RenderBlock (anonymous) at (0,467) size 768x285
        RenderInline {SPAN} at (0,0) size 753x247
          RenderText {#text} at (0,0) size 177x19
            text run at (0,0) width 60: "Word "
            text run at (60,0) width 117: "spacing test "
          RenderInline {EM} at (0,0) size 18x19
            RenderText {#text} at (177,0) size 18x19
              text run at (177,0) width 18: "for"
          RenderText {#text} at (215,0) size 4x19
            text run at (215,0) width 4: " "
          RenderInline {STRONG} at (0,0) size 58x19
            RenderText {#text} at (219,0) size 58x19
              text run at (219,0) width 58: "elements"
          RenderText {#text} at (297,0) size 4x19
            text run at (297,0) width 4: " "
          RenderInline {TT} at (0,0) size 48x15
            RenderText {#text} at (301,4) size 48x15
              text run at (301,4) width 48: "within"
          RenderText {#text} at (369,0) size 107x19
            text run at (369,0) width 107: " elements too."
          RenderBR {BR} at (496,15) size 0x0
          RenderText {#text} at (0,19) size 177x19
            text run at (0,19) width 60: "Word "
            text run at (60,19) width 117: "spacing test "
          RenderInline {EM} at (0,0) size 18x19
            RenderText {#text} at (177,19) size 18x19
              text run at (177,19) width 18: "for"
          RenderText {#text} at (215,19) size 4x19
            text run at (215,19) width 4: " "
          RenderInline {STRONG} at (0,0) size 58x19
            RenderText {#text} at (219,19) size 58x19
              text run at (219,19) width 58: "elements"
          RenderText {#text} at (297,19) size 4x19
            text run at (297,19) width 4: " "
          RenderInline {TT} at (0,0) size 48x15
            RenderText {#text} at (301,23) size 48x15
              text run at (301,23) width 48: "within"
          RenderText {#text} at (369,19) size 83x19
            text run at (369,19) width 83: " elements "
          RenderText {#text} at (452,19) size 692x38
            text run at (452,19) width 240: "too. (with comment between"
            text run at (0,38) width 151: "elements and too)"
          RenderBR {BR} at (171,53) size 0x0
          RenderText {#text} at (0,57) size 177x19
            text run at (0,57) width 60: "Word "
            text run at (60,57) width 117: "spacing test "
          RenderInline {EM} at (0,0) size 18x19
            RenderText {#text} at (177,57) size 18x19
              text run at (177,57) width 18: "for"
          RenderText {#text} at (215,57) size 4x19
            text run at (215,57) width 4: " "
          RenderInline {STRONG} at (0,0) size 58x19
            RenderText {#text} at (219,57) size 58x19
              text run at (219,57) width 58: "elements"
          RenderText {#text} at (297,57) size 4x19
            text run at (297,57) width 4: " "
          RenderInline {TT} at (0,0) size 48x15
            RenderText {#text} at (301,61) size 48x15
              text run at (301,61) width 48: "within"
          RenderText {#text} at (369,57) size 59x19
            text run at (369,57) width 59: " elements"
          RenderText {#text} at (448,57) size 753x38
            text run at (448,57) width 305: " too. (with comment (no preceeding"
            text run at (0,76) width 292: "space) between elements and too)"
          RenderBR {BR} at (312,91) size 0x0
          RenderText {#text} at (0,95) size 177x19
            text run at (0,95) width 60: "Word "
            text run at (60,95) width 117: "spacing test "
          RenderInline {EM} at (0,0) size 18x19
            RenderText {#text} at (177,95) size 18x19
              text run at (177,95) width 18: "for"
          RenderText {#text} at (215,95) size 4x19
            text run at (215,95) width 4: " "
          RenderInline {STRONG} at (0,0) size 58x19
            RenderText {#text} at (219,95) size 58x19
              text run at (219,95) width 58: "elements"
          RenderText {#text} at (297,95) size 4x19
            text run at (297,95) width 4: " "
          RenderInline {TT} at (0,0) size 48x15
            RenderText {#text} at (301,99) size 48x15
              text run at (301,99) width 48: "within"
          RenderText {#text} at (369,95) size 83x19
            text run at (369,95) width 83: " elements "
          RenderText {#text} at (452,95) size 728x38
            text run at (452,95) width 276: "too. (with comment (no trailing"
            text run at (0,114) width 292: "space) between elements and too)"
          RenderBR {BR} at (312,129) size 0x0
          RenderInline {SPAN} at (0,0) size 320x15
            RenderText {#text} at (0,137) size 204x15
              text run at (0,137) width 60: "Word "
              text run at (60,137) width 144: "spacing test "
            RenderInline {EM} at (0,0) size 24x15
              RenderText {#text} at (204,137) size 24x15
                text run at (204,137) width 24: "for"
            RenderText {#text} at (248,137) size 8x15
              text run at (248,137) width 8: " "
            RenderInline {STRONG} at (0,0) size 64x15
              RenderText {#text} at (256,137) size 64x15
                text run at (256,137) width 64: "elements"
          RenderText {#text} at (340,133) size 4x19
            text run at (340,133) width 4: " "
          RenderInline {TT} at (0,0) size 48x15
            RenderText {#text} at (344,137) size 48x15
              text run at (344,137) width 48: "within"
          RenderText {#text} at (412,133) size 720x38
            text run at (412,133) width 308: " elements too. (with monospace font"
            text run at (0,152) width 210: "from Word to elements)"
          RenderBR {BR} at (230,167) size 0x0
          RenderText {#text} at (0,171) size 177x19
            text run at (0,171) width 60: "Word "
            text run at (60,171) width 117: "spacing test "
          RenderInline {SPAN} at (0,0) size 192x15
            RenderInline {EM} at (0,0) size 24x15
              RenderText {#text} at (177,175) size 24x15
                text run at (177,175) width 24: "for"
            RenderText {#text} at (221,175) size 8x15
              text run at (221,175) width 8: " "
            RenderInline {STRONG} at (0,0) size 64x15
              RenderText {#text} at (229,175) size 64x15
                text run at (229,175) width 64: "elements"
            RenderText {#text} at (313,175) size 8x15
              text run at (313,175) width 8: " "
            RenderInline {TT} at (0,0) size 48x15
              RenderText {#text} at (321,175) size 48x15
                text run at (321,175) width 48: "within"
          RenderText {#text} at (389,171) size 751x38
            text run at (389,171) width 362: " elements too. (with monospace font from"
            text run at (0,190) width 123: "for to within)"
          RenderBR {BR} at (143,205) size 0x0
          RenderText {#text} at (0,209) size 177x19
            text run at (0,209) width 60: "Word "
            text run at (60,209) width 117: "spacing test "
          RenderInline {EM} at (0,0) size 18x19
            RenderText {#text} at (177,209) size 18x19
              text run at (177,209) width 18: "for"
          RenderText {#text} at (215,209) size 4x19
            text run at (215,209) width 4: " "
          RenderInline {STRONG} at (0,0) size 58x19
            RenderText {#text} at (219,209) size 58x19
              text run at (219,209) width 58: "elements"
          RenderText {#text} at (297,209) size 4x19
            text run at (297,209) width 4: " "
          RenderInline {SPAN} at (0,0) size 192x15
            RenderInline {TT} at (0,0) size 48x15
              RenderText {#text} at (301,213) size 48x15
                text run at (301,213) width 48: "within"
            RenderText {#text} at (369,213) size 124x15
              text run at (369,213) width 124: " elements too"
          RenderText {#text} at (493,209) size 752x38
            text run at (493,209) width 259: ". (with monospace font from"
            text run at (0,228) width 164: "elements to too) "
        RenderText {#text} at (0,0) size 0x0
        RenderBR {BR} at (0,0) size 0x0
        RenderBR {BR} at (0,247) size 0x19
        RenderBR {BR} at (0,266) size 0x19
      RenderBlock {H2} at (0,771) size 768x28
        RenderText {#text} at (0,0) size 141x28
          text run at (0,0) width 141: "letter-spacing"
      RenderBlock (floating) {PRE} at (0,831) size 1521x168
        RenderBlock {H3} at (0,15) size 1521x18
          RenderText {#text} at (0,0) size 224x18
            text run at (0,0) width 224: "In a floated pre"
        RenderBlock (anonymous) at (0,48) size 1521x120
          RenderText {#text} at (0,0) size 286x30
            text run at (0,0) width 0: " "
            text run at (0,15) width 286: "Letter   spacing test "
          RenderInline {EM} at (0,0) size 39x15
            RenderText {#text} at (286,15) size 39x15
              text run at (286,15) width 39: "for"
          RenderText {#text} at (325,15) size 13x15
            text run at (325,15) width 13: " "
          RenderInline {STRONG} at (0,0) size 104x15
            RenderText {#text} at (338,15) size 104x15
              text run at (338,15) width 104: "elements"
          RenderText {#text} at (442,15) size 13x15
            text run at (442,15) width 13: " "
          RenderInline {TT} at (0,0) size 78x15
            RenderText {#text} at (455,15) size 78x15
              text run at (455,15) width 78: "within"
          RenderText {#text} at (533,15) size 715x30
            text run at (533,15) width 182: " elements too."
            text run at (715,15) width 0: " "
            text run at (0,30) width 286: "Letter   spacing test "
          RenderInline {EM} at (0,0) size 39x15
            RenderText {#text} at (286,30) size 39x15
              text run at (286,30) width 39: "for"
          RenderText {#text} at (325,30) size 13x15
            text run at (325,30) width 13: " "
          RenderInline {STRONG} at (0,0) size 104x15
            RenderText {#text} at (338,30) size 104x15
              text run at (338,30) width 104: "elements"
          RenderText {#text} at (442,30) size 13x15
            text run at (442,30) width 13: " "
          RenderInline {TT} at (0,0) size 78x15
            RenderText {#text} at (455,30) size 78x15
              text run at (455,30) width 78: "within"
          RenderText {#text} at (533,30) size 130x15
            text run at (533,30) width 130: " elements "
          RenderText {#text} at (663,30) size 1248x30
            text run at (663,30) width 585: " too. (with comment between elements and too)"
            text run at (1248,30) width 0: " "
            text run at (0,45) width 286: "Letter   spacing test "
          RenderInline {EM} at (0,0) size 39x15
            RenderText {#text} at (286,45) size 39x15
              text run at (286,45) width 39: "for"
          RenderText {#text} at (325,45) size 13x15
            text run at (325,45) width 13: " "
          RenderInline {STRONG} at (0,0) size 104x15
            RenderText {#text} at (338,45) size 104x15
              text run at (338,45) width 104: "elements"
          RenderText {#text} at (442,45) size 13x15
            text run at (442,45) width 13: " "
          RenderInline {TT} at (0,0) size 78x15
            RenderText {#text} at (455,45) size 78x15
              text run at (455,45) width 78: "within"
          RenderText {#text} at (533,45) size 117x15
            text run at (533,45) width 117: " elements"
          RenderText {#text} at (650,45) size 1521x30
            text run at (650,45) width 871: " too. (with comment (no preceeding space) between elements and too)"
            text run at (1521,45) width 0: " "
            text run at (0,60) width 286: "Letter   spacing test "
          RenderInline {EM} at (0,0) size 39x15
            RenderText {#text} at (286,60) size 39x15
              text run at (286,60) width 39: "for"
          RenderText {#text} at (325,60) size 13x15
            text run at (325,60) width 13: " "
          RenderInline {STRONG} at (0,0) size 104x15
            RenderText {#text} at (338,60) size 104x15
              text run at (338,60) width 104: "elements"
          RenderText {#text} at (442,60) size 13x15
            text run at (442,60) width 13: " "
          RenderInline {TT} at (0,0) size 78x15
            RenderText {#text} at (455,60) size 78x15
              text run at (455,60) width 78: "within"
          RenderText {#text} at (533,60) size 130x15
            text run at (533,60) width 130: " elements "
          RenderText {#text} at (663,60) size 832x15
            text run at (663,60) width 832: "too. (with comment (no trailing space) between elements and too)"
            text run at (1495,60) width 0: " "
          RenderInline {SPAN} at (0,0) size 442x15
            RenderText {#text} at (0,75) size 286x15
              text run at (0,75) width 286: "Letter   spacing test "
            RenderInline {EM} at (0,0) size 39x15
              RenderText {#text} at (286,75) size 39x15
                text run at (286,75) width 39: "for"
            RenderText {#text} at (325,75) size 13x15
              text run at (325,75) width 13: " "
            RenderInline {STRONG} at (0,0) size 104x15
              RenderText {#text} at (338,75) size 104x15
                text run at (338,75) width 104: "elements"
          RenderText {#text} at (442,75) size 13x15
            text run at (442,75) width 13: " "
          RenderInline {TT} at (0,0) size 78x15
            RenderText {#text} at (455,75) size 78x15
              text run at (455,75) width 78: "within"
          RenderText {#text} at (533,75) size 1313x30
            text run at (533,75) width 780: " elements too. (with monospace font from Letter to elements)"
            text run at (1313,75) width 0: " "
            text run at (0,90) width 286: "Letter   spacing test "
          RenderInline {SPAN} at (0,0) size 247x15
            RenderInline {EM} at (0,0) size 39x15
              RenderText {#text} at (286,90) size 39x15
                text run at (286,90) width 39: "for"
            RenderText {#text} at (325,90) size 13x15
              text run at (325,90) width 13: " "
            RenderInline {STRONG} at (0,0) size 104x15
              RenderText {#text} at (338,90) size 104x15
                text run at (338,90) width 104: "elements"
            RenderText {#text} at (442,90) size 13x15
              text run at (442,90) width 13: " "
            RenderInline {TT} at (0,0) size 78x15
              RenderText {#text} at (455,90) size 78x15
                text run at (455,90) width 78: "within"
          RenderText {#text} at (533,90) size 1248x30
            text run at (533,90) width 715: " elements too. (with monospace font from for to within)"
            text run at (1248,90) width 0: " "
            text run at (0,105) width 286: "Letter   spacing test "
          RenderInline {EM} at (0,0) size 39x15
            RenderText {#text} at (286,105) size 39x15
              text run at (286,105) width 39: "for"
          RenderText {#text} at (325,105) size 13x15
            text run at (325,105) width 13: " "
          RenderInline {STRONG} at (0,0) size 104x15
            RenderText {#text} at (338,105) size 104x15
              text run at (338,105) width 104: "elements"
          RenderText {#text} at (442,105) size 13x15
            text run at (442,105) width 13: " "
          RenderInline {SPAN} at (0,0) size 247x15
            RenderInline {TT} at (0,0) size 78x15
              RenderText {#text} at (455,105) size 78x15
                text run at (455,105) width 78: "within"
            RenderText {#text} at (533,105) size 169x15
              text run at (533,105) width 169: " elements too"
          RenderText {#text} at (702,105) size 572x15
            text run at (702,105) width 572: ". (with monospace font from elements to too)"
            text run at (1274,105) width 0: " "
      RenderBlock (anonymous) at (0,818) size 768x194
        RenderBR {BR} at (1521,0) size 0x19
      RenderBlock {PRE} at (0,1027) size 768x153
        RenderBlock {H3} at (0,0) size 768x18
          RenderText {#text} at (0,0) size 280x18
            text run at (0,0) width 280: "In an un-floated pre"
        RenderBlock (anonymous) at (0,33) size 768x120
          RenderText {#text} at (0,0) size 286x30
            text run at (0,0) width 0: " "
            text run at (0,15) width 286: "Letter   spacing test "
          RenderInline {EM} at (0,0) size 39x15
            RenderText {#text} at (286,15) size 39x15
              text run at (286,15) width 39: "for"
          RenderText {#text} at (325,15) size 13x15
            text run at (325,15) width 13: " "
          RenderInline {STRONG} at (0,0) size 104x15
            RenderText {#text} at (338,15) size 104x15
              text run at (338,15) width 104: "elements"
          RenderText {#text} at (442,15) size 13x15
            text run at (442,15) width 13: " "
          RenderInline {TT} at (0,0) size 78x15
            RenderText {#text} at (455,15) size 78x15
              text run at (455,15) width 78: "within"
          RenderText {#text} at (533,15) size 715x30
            text run at (533,15) width 182: " elements too."
            text run at (715,15) width 0: " "
            text run at (0,30) width 286: "Letter   spacing test "
          RenderInline {EM} at (0,0) size 39x15
            RenderText {#text} at (286,30) size 39x15
              text run at (286,30) width 39: "for"
          RenderText {#text} at (325,30) size 13x15
            text run at (325,30) width 13: " "
          RenderInline {STRONG} at (0,0) size 104x15
            RenderText {#text} at (338,30) size 104x15
              text run at (338,30) width 104: "elements"
          RenderText {#text} at (442,30) size 13x15
            text run at (442,30) width 13: " "
          RenderInline {TT} at (0,0) size 78x15
            RenderText {#text} at (455,30) size 78x15
              text run at (455,30) width 78: "within"
          RenderText {#text} at (533,30) size 130x15
            text run at (533,30) width 130: " elements "
          RenderText {#text} at (663,30) size 1248x30
            text run at (663,30) width 585: " too. (with comment between elements and too)"
            text run at (1248,30) width 0: " "
            text run at (0,45) width 286: "Letter   spacing test "
          RenderInline {EM} at (0,0) size 39x15
            RenderText {#text} at (286,45) size 39x15
              text run at (286,45) width 39: "for"
          RenderText {#text} at (325,45) size 13x15
            text run at (325,45) width 13: " "
          RenderInline {STRONG} at (0,0) size 104x15
            RenderText {#text} at (338,45) size 104x15
              text run at (338,45) width 104: "elements"
          RenderText {#text} at (442,45) size 13x15
            text run at (442,45) width 13: " "
          RenderInline {TT} at (0,0) size 78x15
            RenderText {#text} at (455,45) size 78x15
              text run at (455,45) width 78: "within"
          RenderText {#text} at (533,45) size 117x15
            text run at (533,45) width 117: " elements"
          RenderText {#text} at (650,45) size 1521x30
            text run at (650,45) width 871: " too. (with comment (no preceeding space) between elements and too)"
            text run at (1521,45) width 0: " "
            text run at (0,60) width 286: "Letter   spacing test "
          RenderInline {EM} at (0,0) size 39x15
            RenderText {#text} at (286,60) size 39x15
              text run at (286,60) width 39: "for"
          RenderText {#text} at (325,60) size 13x15
            text run at (325,60) width 13: " "
          RenderInline {STRONG} at (0,0) size 104x15
            RenderText {#text} at (338,60) size 104x15
              text run at (338,60) width 104: "elements"
          RenderText {#text} at (442,60) size 13x15
            text run at (442,60) width 13: " "
          RenderInline {TT} at (0,0) size 78x15
            RenderText {#text} at (455,60) size 78x15
              text run at (455,60) width 78: "within"
          RenderText {#text} at (533,60) size 130x15
            text run at (533,60) width 130: " elements "
          RenderText {#text} at (663,60) size 832x15
            text run at (663,60) width 832: "too. (with comment (no trailing space) between elements and too)"
            text run at (1495,60) width 0: " "
          RenderInline {SPAN} at (0,0) size 442x15
            RenderText {#text} at (0,75) size 286x15
              text run at (0,75) width 286: "Letter   spacing test "
            RenderInline {EM} at (0,0) size 39x15
              RenderText {#text} at (286,75) size 39x15
                text run at (286,75) width 39: "for"
            RenderText {#text} at (325,75) size 13x15
              text run at (325,75) width 13: " "
            RenderInline {STRONG} at (0,0) size 104x15
              RenderText {#text} at (338,75) size 104x15
                text run at (338,75) width 104: "elements"
          RenderText {#text} at (442,75) size 13x15
            text run at (442,75) width 13: " "
          RenderInline {TT} at (0,0) size 78x15
            RenderText {#text} at (455,75) size 78x15
              text run at (455,75) width 78: "within"
          RenderText {#text} at (533,75) size 1313x30
            text run at (533,75) width 780: " elements too. (with monospace font from Letter to elements)"
            text run at (1313,75) width 0: " "
            text run at (0,90) width 286: "Letter   spacing test "
          RenderInline {SPAN} at (0,0) size 247x15
            RenderInline {EM} at (0,0) size 39x15
              RenderText {#text} at (286,90) size 39x15
                text run at (286,90) width 39: "for"
            RenderText {#text} at (325,90) size 13x15
              text run at (325,90) width 13: " "
            RenderInline {STRONG} at (0,0) size 104x15
              RenderText {#text} at (338,90) size 104x15
                text run at (338,90) width 104: "elements"
            RenderText {#text} at (442,90) size 13x15
              text run at (442,90) width 13: " "
            RenderInline {TT} at (0,0) size 78x15
              RenderText {#text} at (455,90) size 78x15
                text run at (455,90) width 78: "within"
          RenderText {#text} at (533,90) size 1248x30
            text run at (533,90) width 715: " elements too. (with monospace font from for to within)"
            text run at (1248,90) width 0: " "
            text run at (0,105) width 286: "Letter   spacing test "
          RenderInline {EM} at (0,0) size 39x15
            RenderText {#text} at (286,105) size 39x15
              text run at (286,105) width 39: "for"
          RenderText {#text} at (325,105) size 13x15
            text run at (325,105) width 13: " "
          RenderInline {STRONG} at (0,0) size 104x15
            RenderText {#text} at (338,105) size 104x15
              text run at (338,105) width 104: "elements"
          RenderText {#text} at (442,105) size 13x15
            text run at (442,105) width 13: " "
          RenderInline {SPAN} at (0,0) size 247x15
            RenderInline {TT} at (0,0) size 78x15
              RenderText {#text} at (455,105) size 78x15
                text run at (455,105) width 78: "within"
            RenderText {#text} at (533,105) size 169x15
              text run at (533,105) width 169: " elements too"
          RenderText {#text} at (702,105) size 572x15
            text run at (702,105) width 572: ". (with monospace font from elements to too)"
            text run at (1274,105) width 0: " "
      RenderBlock (anonymous) at (0,1193) size 768x19
        RenderBR {BR} at (0,0) size 0x19
        RenderInline {SPAN} at (0,0) size 0x0
          RenderText {#text} at (0,0) size 0x0
      RenderBlock (anonymous) at (0,1230) size 768x22
        RenderBlock {H3} at (0,0) size 768x22
          RenderText {#text} at (0,0) size 122x22
            text run at (0,0) width 122: "In a span"
      RenderBlock (anonymous) at (0,1270) size 768x285
        RenderInline {SPAN} at (0,0) size 727x247
          RenderText {#text} at (0,0) size 218x19
            text run at (0,0) width 76: "Letter "
            text run at (76,0) width 142: "spacing test "
          RenderInline {EM} at (0,0) size 33x19
            RenderText {#text} at (218,0) size 33x19
              text run at (218,0) width 33: "for"
          RenderText {#text} at (251,0) size 9x19
            text run at (251,0) width 9: " "
          RenderInline {STRONG} at (0,0) size 98x19
            RenderText {#text} at (260,0) size 98x19
              text run at (260,0) width 98: "elements"
          RenderText {#text} at (358,0) size 9x19
            text run at (358,0) width 9: " "
          RenderInline {TT} at (0,0) size 78x15
            RenderText {#text} at (367,4) size 78x15
              text run at (367,4) width 78: "within"
          RenderText {#text} at (445,0) size 157x19
            text run at (445,0) width 157: " elements too."
          RenderBR {BR} at (602,15) size 0x0
          RenderText {#text} at (0,19) size 218x19
            text run at (0,19) width 76: "Letter "
            text run at (76,19) width 142: "spacing test "
          RenderInline {EM} at (0,0) size 33x19
            RenderText {#text} at (218,19) size 33x19
              text run at (218,19) width 33: "for"
          RenderText {#text} at (251,19) size 9x19
            text run at (251,19) width 9: " "
          RenderInline {STRONG} at (0,0) size 98x19
            RenderText {#text} at (260,19) size 98x19
              text run at (260,19) width 98: "elements"
          RenderText {#text} at (358,19) size 9x19
            text run at (358,19) width 9: " "
          RenderInline {TT} at (0,0) size 78x15
            RenderText {#text} at (367,23) size 78x15
              text run at (367,23) width 78: "within"
          RenderText {#text} at (445,19) size 113x19
            text run at (445,19) width 113: " elements "
          RenderText {#text} at (558,19) size 669x38
            text run at (558,19) width 111: "too. (with"
            text run at (0,38) width 395: "comment between elements and too)"
          RenderBR {BR} at (395,53) size 0x0
          RenderText {#text} at (0,57) size 218x19
            text run at (0,57) width 76: "Letter "
            text run at (76,57) width 142: "spacing test "
          RenderInline {EM} at (0,0) size 33x19
            RenderText {#text} at (218,57) size 33x19
              text run at (218,57) width 33: "for"
          RenderText {#text} at (251,57) size 9x19
            text run at (251,57) width 9: " "
          RenderInline {STRONG} at (0,0) size 98x19
            RenderText {#text} at (260,57) size 98x19
              text run at (260,57) width 98: "elements"
          RenderText {#text} at (358,57) size 9x19
            text run at (358,57) width 9: " "
          RenderInline {TT} at (0,0) size 78x15
            RenderText {#text} at (367,61) size 78x15
              text run at (367,61) width 78: "within"
          RenderText {#text} at (445,57) size 104x19
            text run at (445,57) width 104: " elements"
          RenderText {#text} at (549,57) size 669x38
            text run at (549,57) width 120: " too. (with"
            text run at (0,76) width 647: "comment (no preceeding space) between elements and too)"
          RenderBR {BR} at (647,91) size 0x0
          RenderText {#text} at (0,95) size 218x19
            text run at (0,95) width 76: "Letter "
            text run at (76,95) width 142: "spacing test "
          RenderInline {EM} at (0,0) size 33x19
            RenderText {#text} at (218,95) size 33x19
              text run at (218,95) width 33: "for"
          RenderText {#text} at (251,95) size 9x19
            text run at (251,95) width 9: " "
          RenderInline {STRONG} at (0,0) size 98x19
            RenderText {#text} at (260,95) size 98x19
              text run at (260,95) width 98: "elements"
          RenderText {#text} at (358,95) size 9x19
            text run at (358,95) width 9: " "
          RenderInline {TT} at (0,0) size 78x15
            RenderText {#text} at (367,99) size 78x15
              text run at (367,99) width 78: "within"
          RenderText {#text} at (445,95) size 113x19
            text run at (445,95) width 113: " elements "
          RenderText {#text} at (558,95) size 669x38
            text run at (558,95) width 111: "too. (with"
            text run at (0,114) width 612: "comment (no trailing space) between elements and too)"
          RenderBR {BR} at (612,129) size 0x0
          RenderInline {SPAN} at (0,0) size 416x15
            RenderText {#text} at (0,137) size 260x15
              text run at (0,137) width 91: "Letter "
              text run at (91,137) width 169: "spacing test "
            RenderInline {EM} at (0,0) size 39x15
              RenderText {#text} at (260,137) size 39x15
                text run at (260,137) width 39: "for"
            RenderText {#text} at (299,137) size 13x15
              text run at (299,137) width 13: " "
            RenderInline {STRONG} at (0,0) size 104x15
              RenderText {#text} at (312,137) size 104x15
                text run at (312,137) width 104: "elements"
          RenderText {#text} at (416,133) size 9x19
            text run at (416,133) width 9: " "
          RenderInline {TT} at (0,0) size 78x15
            RenderText {#text} at (425,137) size 78x15
              text run at (425,137) width 78: "within"
          RenderText {#text} at (503,133) size 727x38
            text run at (503,133) width 224: " elements too. (with"
            text run at (0,152) width 450: "monospace font from Letter to elements)"
          RenderBR {BR} at (450,167) size 0x0
          RenderText {#text} at (0,171) size 218x19
            text run at (0,171) width 76: "Letter "
            text run at (76,171) width 142: "spacing test "
          RenderInline {SPAN} at (0,0) size 247x15
            RenderInline {EM} at (0,0) size 39x15
              RenderText {#text} at (218,175) size 39x15
                text run at (218,175) width 39: "for"
            RenderText {#text} at (257,175) size 13x15
              text run at (257,175) width 13: " "
            RenderInline {STRONG} at (0,0) size 104x15
              RenderText {#text} at (270,175) size 104x15
                text run at (270,175) width 104: "elements"
            RenderText {#text} at (374,175) size 13x15
              text run at (374,175) width 13: " "
            RenderInline {TT} at (0,0) size 78x15
              RenderText {#text} at (387,175) size 78x15
                text run at (387,175) width 78: "within"
          RenderText {#text} at (465,171) size 689x38
            text run at (465,171) width 224: " elements too. (with"
            text run at (0,190) width 391: "monospace font from for to within)"
          RenderBR {BR} at (391,205) size 0x0
          RenderText {#text} at (0,209) size 218x19
            text run at (0,209) width 76: "Letter "
            text run at (76,209) width 142: "spacing test "
          RenderInline {EM} at (0,0) size 33x19
            RenderText {#text} at (218,209) size 33x19
              text run at (218,209) width 33: "for"
          RenderText {#text} at (251,209) size 9x19
            text run at (251,209) width 9: " "
          RenderInline {STRONG} at (0,0) size 98x19
            RenderText {#text} at (260,209) size 98x19
              text run at (260,209) width 98: "elements"
          RenderText {#text} at (358,209) size 9x19
            text run at (358,209) width 9: " "
          RenderInline {SPAN} at (0,0) size 247x15
            RenderInline {TT} at (0,0) size 78x15
              RenderText {#text} at (367,213) size 78x15
                text run at (367,213) width 78: "within"
            RenderText {#text} at (445,213) size 169x15
              text run at (445,213) width 169: " elements too"
          RenderText {#text} at (614,209) size 690x38
            text run at (614,209) width 76: ". (with"
            text run at (0,228) width 427: "monospace font from elements to too) "
        RenderText {#text} at (0,0) size 0x0
        RenderBR {BR} at (0,0) size 0x0
        RenderBR {BR} at (0,247) size 0x19
        RenderBR {BR} at (0,266) size 0x19
      RenderBlock {H2} at (0,1574) size 768x28
        RenderText {#text} at (0,0) size 131x28
          text run at (0,0) width 131: "both-spacing"
      RenderBlock (floating) {PRE} at (0,1634) size 1978x168
        RenderBlock {H3} at (0,15) size 1978x18
          RenderText {#text} at (0,0) size 284x18
            text run at (0,0) width 284: "In a floated pre"
        RenderBlock (anonymous) at (0,48) size 1978x120
          RenderText {#text} at (0,0) size 503x30
            text run at (0,0) width 0: " "
            text run at (0,15) width 503: "Word and letter   spacing test "
          RenderInline {EM} at (0,0) size 39x15
            RenderText {#text} at (503,15) size 39x15
              text run at (503,15) width 39: "for"
          RenderText {#text} at (562,15) size 13x15
            text run at (562,15) width 13: " "
          RenderInline {STRONG} at (0,0) size 104x15
            RenderText {#text} at (575,15) size 104x15
              text run at (575,15) width 104: "elements"
          RenderText {#text} at (699,15) size 13x15
            text run at (699,15) width 13: " "
          RenderInline {TT} at (0,0) size 78x15
            RenderText {#text} at (712,15) size 78x15
              text run at (712,15) width 78: "within"
          RenderText {#text} at (810,15) size 1032x30
            text run at (810,15) width 202: " elements too."
            text run at (1032,15) width 0: " "
            text run at (0,30) width 503: "Word and letter   spacing test "
          RenderInline {EM} at (0,0) size 39x15
            RenderText {#text} at (503,30) size 39x15
              text run at (503,30) width 39: "for"
          RenderText {#text} at (562,30) size 13x15
            text run at (562,30) width 13: " "
          RenderInline {STRONG} at (0,0) size 104x15
            RenderText {#text} at (575,30) size 104x15
              text run at (575,30) width 104: "elements"
          RenderText {#text} at (699,30) size 13x15
            text run at (699,30) width 13: " "
          RenderInline {TT} at (0,0) size 78x15
            RenderText {#text} at (712,30) size 78x15
              text run at (712,30) width 78: "within"
          RenderText {#text} at (810,30) size 150x15
            text run at (810,30) width 150: " elements "
          RenderText {#text} at (960,30) size 1685x30
            text run at (960,30) width 705: " too. (with comment between elements and too)"
            text run at (1685,30) width 0: " "
            text run at (0,45) width 503: "Word and letter   spacing test "
          RenderInline {EM} at (0,0) size 39x15
            RenderText {#text} at (503,45) size 39x15
              text run at (503,45) width 39: "for"
          RenderText {#text} at (562,45) size 13x15
            text run at (562,45) width 13: " "
          RenderInline {STRONG} at (0,0) size 104x15
            RenderText {#text} at (575,45) size 104x15
              text run at (575,45) width 104: "elements"
          RenderText {#text} at (699,45) size 13x15
            text run at (699,45) width 13: " "
          RenderInline {TT} at (0,0) size 78x15
            RenderText {#text} at (712,45) size 78x15
              text run at (712,45) width 78: "within"
          RenderText {#text} at (810,45) size 117x15
            text run at (810,45) width 117: " elements"
          RenderText {#text} at (947,45) size 2018x30
            text run at (947,45) width 1051: " too. (with comment (no preceeding space) between elements and too)"
            text run at (2018,45) width 0: " "
            text run at (0,60) width 503: "Word and letter   spacing test "
          RenderInline {EM} at (0,0) size 39x15
            RenderText {#text} at (503,60) size 39x15
              text run at (503,60) width 39: "for"
          RenderText {#text} at (562,60) size 13x15
            text run at (562,60) width 13: " "
          RenderInline {STRONG} at (0,0) size 104x15
            RenderText {#text} at (575,60) size 104x15
              text run at (575,60) width 104: "elements"
          RenderText {#text} at (699,60) size 13x15
            text run at (699,60) width 13: " "
          RenderInline {TT} at (0,0) size 78x15
            RenderText {#text} at (712,60) size 78x15
              text run at (712,60) width 78: "within"
          RenderText {#text} at (810,60) size 150x15
            text run at (810,60) width 150: " elements "
          RenderText {#text} at (960,60) size 1032x15
            text run at (960,60) width 1012: "too. (with comment (no trailing space) between elements and too)"
            text run at (1992,60) width 0: " "
          RenderInline {SPAN} at (0,0) size 679x15
            RenderText {#text} at (0,75) size 503x15
              text run at (0,75) width 503: "Word and letter   spacing test "
            RenderInline {EM} at (0,0) size 39x15
              RenderText {#text} at (503,75) size 39x15
                text run at (503,75) width 39: "for"
            RenderText {#text} at (562,75) size 13x15
              text run at (562,75) width 13: " "
            RenderInline {STRONG} at (0,0) size 104x15
              RenderText {#text} at (575,75) size 104x15
                text run at (575,75) width 104: "elements"
          RenderText {#text} at (699,75) size 13x15
            text run at (699,75) width 13: " "
          RenderInline {TT} at (0,0) size 78x15
            RenderText {#text} at (712,75) size 78x15
              text run at (712,75) width 78: "within"
          RenderText {#text} at (810,75) size 1744x30
            text run at (810,75) width 914: " elements too. (with monospace font from Word to elements)"
            text run at (1744,75) width 0: " "
            text run at (0,90) width 503: "Word and letter   spacing test "
          RenderInline {SPAN} at (0,0) size 287x15
            RenderInline {EM} at (0,0) size 39x15
              RenderText {#text} at (503,90) size 39x15
                text run at (503,90) width 39: "for"
            RenderText {#text} at (562,90) size 13x15
              text run at (562,90) width 13: " "
            RenderInline {STRONG} at (0,0) size 104x15
              RenderText {#text} at (575,90) size 104x15
                text run at (575,90) width 104: "elements"
            RenderText {#text} at (699,90) size 13x15
              text run at (699,90) width 13: " "
            RenderInline {TT} at (0,0) size 78x15
              RenderText {#text} at (712,90) size 78x15
                text run at (712,90) width 78: "within"
          RenderText {#text} at (810,90) size 1705x30
            text run at (810,90) width 875: " elements too. (with monospace font from for to within)"
            text run at (1705,90) width 0: " "
            text run at (0,105) width 503: "Word and letter   spacing test "
          RenderInline {EM} at (0,0) size 39x15
            RenderText {#text} at (503,105) size 39x15
              text run at (503,105) width 39: "for"
          RenderText {#text} at (562,105) size 13x15
            text run at (562,105) width 13: " "
          RenderInline {STRONG} at (0,0) size 104x15
            RenderText {#text} at (575,105) size 104x15
              text run at (575,105) width 104: "elements"
          RenderText {#text} at (699,105) size 13x15
            text run at (699,105) width 13: " "
          RenderInline {SPAN} at (0,0) size 287x15
            RenderInline {TT} at (0,0) size 78x15
              RenderText {#text} at (712,105) size 78x15
                text run at (712,105) width 78: "within"
            RenderText {#text} at (810,105) size 189x15
              text run at (810,105) width 189: " elements too"
          RenderText {#text} at (999,105) size 732x15
            text run at (999,105) width 712: ". (with monospace font from elements to too)"
            text run at (1731,105) width 0: " "
      RenderBlock (anonymous) at (0,1621) size 768x194
        RenderBR {BR} at (1978,0) size 0x19
      RenderBlock {PRE} at (0,1830) size 768x153
        RenderBlock {H3} at (0,0) size 768x18
          RenderText {#text} at (0,0) size 340x18
            text run at (0,0) width 340: "In an un-floated pre"
        RenderBlock (anonymous) at (0,33) size 768x120
          RenderText {#text} at (0,0) size 503x30
            text run at (0,0) width 0: " "
            text run at (0,15) width 503: "Word and letter   spacing test "
          RenderInline {EM} at (0,0) size 39x15
            RenderText {#text} at (503,15) size 39x15
              text run at (503,15) width 39: "for"
          RenderText {#text} at (562,15) size 13x15
            text run at (562,15) width 13: " "
          RenderInline {STRONG} at (0,0) size 104x15
            RenderText {#text} at (575,15) size 104x15
              text run at (575,15) width 104: "elements"
          RenderText {#text} at (699,15) size 13x15
            text run at (699,15) width 13: " "
          RenderInline {TT} at (0,0) size 78x15
            RenderText {#text} at (712,15) size 78x15
              text run at (712,15) width 78: "within"
          RenderText {#text} at (810,15) size 1032x30
            text run at (810,15) width 202: " elements too."
            text run at (1032,15) width 0: " "
            text run at (0,30) width 503: "Word and letter   spacing test "
          RenderInline {EM} at (0,0) size 39x15
            RenderText {#text} at (503,30) size 39x15
              text run at (503,30) width 39: "for"
          RenderText {#text} at (562,30) size 13x15
            text run at (562,30) width 13: " "
          RenderInline {STRONG} at (0,0) size 104x15
            RenderText {#text} at (575,30) size 104x15
              text run at (575,30) width 104: "elements"
          RenderText {#text} at (699,30) size 13x15
            text run at (699,30) width 13: " "
          RenderInline {TT} at (0,0) size 78x15
            RenderText {#text} at (712,30) size 78x15
              text run at (712,30) width 78: "within"
          RenderText {#text} at (810,30) size 150x15
            text run at (810,30) width 150: " elements "
          RenderText {#text} at (960,30) size 1685x30
            text run at (960,30) width 705: " too. (with comment between elements and too)"
            text run at (1685,30) width 0: " "
            text run at (0,45) width 503: "Word and letter   spacing test "
          RenderInline {EM} at (0,0) size 39x15
            RenderText {#text} at (503,45) size 39x15
              text run at (503,45) width 39: "for"
          RenderText {#text} at (562,45) size 13x15
            text run at (562,45) width 13: " "
          RenderInline {STRONG} at (0,0) size 104x15
            RenderText {#text} at (575,45) size 104x15
              text run at (575,45) width 104: "elements"
          RenderText {#text} at (699,45) size 13x15
            text run at (699,45) width 13: " "
          RenderInline {TT} at (0,0) size 78x15
            RenderText {#text} at (712,45) size 78x15
              text run at (712,45) width 78: "within"
          RenderText {#text} at (810,45) size 117x15
            text run at (810,45) width 117: " elements"
          RenderText {#text} at (947,45) size 2018x30
            text run at (947,45) width 1051: " too. (with comment (no preceeding space) between elements and too)"
            text run at (2018,45) width 0: " "
            text run at (0,60) width 503: "Word and letter   spacing test "
          RenderInline {EM} at (0,0) size 39x15
            RenderText {#text} at (503,60) size 39x15
              text run at (503,60) width 39: "for"
          RenderText {#text} at (562,60) size 13x15
            text run at (562,60) width 13: " "
          RenderInline {STRONG} at (0,0) size 104x15
            RenderText {#text} at (575,60) size 104x15
              text run at (575,60) width 104: "elements"
          RenderText {#text} at (699,60) size 13x15
            text run at (699,60) width 13: " "
          RenderInline {TT} at (0,0) size 78x15
            RenderText {#text} at (712,60) size 78x15
              text run at (712,60) width 78: "within"
          RenderText {#text} at (810,60) size 150x15
            text run at (810,60) width 150: " elements "
          RenderText {#text} at (960,60) size 1032x15
            text run at (960,60) width 1012: "too. (with comment (no trailing space) between elements and too)"
            text run at (1992,60) width 0: " "
          RenderInline {SPAN} at (0,0) size 679x15
            RenderText {#text} at (0,75) size 503x15
              text run at (0,75) width 503: "Word and letter   spacing test "
            RenderInline {EM} at (0,0) size 39x15
              RenderText {#text} at (503,75) size 39x15
                text run at (503,75) width 39: "for"
            RenderText {#text} at (562,75) size 13x15
              text run at (562,75) width 13: " "
            RenderInline {STRONG} at (0,0) size 104x15
              RenderText {#text} at (575,75) size 104x15
                text run at (575,75) width 104: "elements"
          RenderText {#text} at (699,75) size 13x15
            text run at (699,75) width 13: " "
          RenderInline {TT} at (0,0) size 78x15
            RenderText {#text} at (712,75) size 78x15
              text run at (712,75) width 78: "within"
          RenderText {#text} at (810,75) size 1744x30
            text run at (810,75) width 914: " elements too. (with monospace font from Word to elements)"
            text run at (1744,75) width 0: " "
            text run at (0,90) width 503: "Word and letter   spacing test "
          RenderInline {SPAN} at (0,0) size 287x15
            RenderInline {EM} at (0,0) size 39x15
              RenderText {#text} at (503,90) size 39x15
                text run at (503,90) width 39: "for"
            RenderText {#text} at (562,90) size 13x15
              text run at (562,90) width 13: " "
            RenderInline {STRONG} at (0,0) size 104x15
              RenderText {#text} at (575,90) size 104x15
                text run at (575,90) width 104: "elements"
            RenderText {#text} at (699,90) size 13x15
              text run at (699,90) width 13: " "
            RenderInline {TT} at (0,0) size 78x15
              RenderText {#text} at (712,90) size 78x15
                text run at (712,90) width 78: "within"
          RenderText {#text} at (810,90) size 1705x30
            text run at (810,90) width 875: " elements too. (with monospace font from for to within)"
            text run at (1705,90) width 0: " "
            text run at (0,105) width 503: "Word and letter   spacing test "
          RenderInline {EM} at (0,0) size 39x15
            RenderText {#text} at (503,105) size 39x15
              text run at (503,105) width 39: "for"
          RenderText {#text} at (562,105) size 13x15
            text run at (562,105) width 13: " "
          RenderInline {STRONG} at (0,0) size 104x15
            RenderText {#text} at (575,105) size 104x15
              text run at (575,105) width 104: "elements"
          RenderText {#text} at (699,105) size 13x15
            text run at (699,105) width 13: " "
          RenderInline {SPAN} at (0,0) size 287x15
            RenderInline {TT} at (0,0) size 78x15
              RenderText {#text} at (712,105) size 78x15
                text run at (712,105) width 78: "within"
            RenderText {#text} at (810,105) size 189x15
              text run at (810,105) width 189: " elements too"
          RenderText {#text} at (999,105) size 732x15
            text run at (999,105) width 712: ". (with monospace font from elements to too)"
            text run at (1731,105) width 0: " "
      RenderBlock (anonymous) at (0,1996) size 768x19
        RenderBR {BR} at (0,0) size 0x19
        RenderInline {SPAN} at (0,0) size 0x0
          RenderText {#text} at (0,0) size 0x0
      RenderBlock (anonymous) at (0,2033) size 768x22
        RenderBlock {H3} at (0,0) size 768x22
          RenderText {#text} at (0,0) size 162x22
            text run at (0,0) width 162: "In a span"
      RenderBlock (anonymous) at (0,2073) size 768x361
        RenderInline {SPAN} at (0,0) size 779x361
          RenderText {#text} at (0,0) size 424x19
            text run at (0,0) width 242: "Word and letter "
            text run at (242,0) width 182: "spacing test "
          RenderInline {EM} at (0,0) size 33x19
            RenderText {#text} at (424,0) size 33x19
              text run at (424,0) width 33: "for"
          RenderText {#text} at (477,0) size 9x19
            text run at (477,0) width 9: " "
          RenderInline {STRONG} at (0,0) size 98x19
            RenderText {#text} at (486,0) size 98x19
              text run at (486,0) width 98: "elements"
          RenderText {#text} at (604,0) size 9x19
            text run at (604,0) width 9: " "
          RenderInline {TT} at (0,0) size 78x15
            RenderText {#text} at (613,4) size 78x15
              text run at (613,4) width 78: "within"
          RenderText {#text} at (0,19) size 168x19
            text run at (0,19) width 168: "elements too."
          RenderBR {BR} at (188,34) size 0x0
          RenderText {#text} at (0,38) size 424x19
            text run at (0,38) width 242: "Word and letter "
            text run at (242,38) width 182: "spacing test "
          RenderInline {EM} at (0,0) size 33x19
            RenderText {#text} at (424,38) size 33x19
              text run at (424,38) width 33: "for"
          RenderText {#text} at (477,38) size 9x19
            text run at (477,38) width 9: " "
          RenderInline {STRONG} at (0,0) size 98x19
            RenderText {#text} at (486,38) size 98x19
              text run at (486,38) width 98: "elements"
          RenderText {#text} at (604,38) size 9x19
            text run at (604,38) width 9: " "
          RenderInline {TT} at (0,0) size 78x15
            RenderText {#text} at (613,42) size 78x15
              text run at (613,42) width 78: "within"
          RenderText {#text} at (0,57) size 124x19
            text run at (0,57) width 124: "elements "
          RenderText {#text} at (124,57) size 635x19
            text run at (124,57) width 635: "too. (with comment between elements and too)"
          RenderBR {BR} at (779,72) size 0x0
          RenderText {#text} at (0,76) size 424x19
            text run at (0,76) width 242: "Word and letter "
            text run at (242,76) width 182: "spacing test "
          RenderInline {EM} at (0,0) size 33x19
            RenderText {#text} at (424,76) size 33x19
              text run at (424,76) width 33: "for"
          RenderText {#text} at (477,76) size 9x19
            text run at (477,76) width 9: " "
          RenderInline {STRONG} at (0,0) size 98x19
            RenderText {#text} at (486,76) size 98x19
              text run at (486,76) width 98: "elements"
          RenderText {#text} at (604,76) size 9x19
            text run at (604,76) width 9: " "
          RenderInline {TT} at (0,0) size 78x15
            RenderText {#text} at (613,80) size 78x15
              text run at (613,80) width 78: "within"
          RenderText {#text} at (0,95) size 95x19
            text run at (0,95) width 95: "elements"
          RenderText {#text} at (115,95) size 689x38
            text run at (115,95) width 574: " too. (with comment (no preceeding space)"
            text run at (0,114) width 353: "between elements and too)"
          RenderBR {BR} at (373,129) size 0x0
          RenderText {#text} at (0,133) size 424x19
            text run at (0,133) width 242: "Word and letter "
            text run at (242,133) width 182: "spacing test "
          RenderInline {EM} at (0,0) size 33x19
            RenderText {#text} at (424,133) size 33x19
              text run at (424,133) width 33: "for"
          RenderText {#text} at (477,133) size 9x19
            text run at (477,133) width 9: " "
          RenderInline {STRONG} at (0,0) size 98x19
            RenderText {#text} at (486,133) size 98x19
              text run at (486,133) width 98: "elements"
          RenderText {#text} at (604,133) size 9x19
            text run at (604,133) width 9: " "
          RenderInline {TT} at (0,0) size 78x15
            RenderText {#text} at (613,137) size 78x15
              text run at (613,137) width 78: "within"
          RenderText {#text} at (0,152) size 124x19
            text run at (0,152) width 124: "elements "
          RenderText {#text} at (124,152) size 654x38
            text run at (124,152) width 530: "too. (with comment (no trailing space)"
            text run at (0,171) width 353: "between elements and too)"
          RenderBR {BR} at (373,186) size 0x0
          RenderInline {SPAN} at (0,0) size 653x15
            RenderText {#text} at (0,194) size 477x15
              text run at (0,194) width 268: "Word and letter "
              text run at (268,194) width 209: "spacing test "
            RenderInline {EM} at (0,0) size 39x15
              RenderText {#text} at (477,194) size 39x15
                text run at (477,194) width 39: "for"
            RenderText {#text} at (536,194) size 13x15
              text run at (536,194) width 13: " "
            RenderInline {STRONG} at (0,0) size 104x15
              RenderText {#text} at (549,194) size 104x15
                text run at (549,194) width 104: "elements"
          RenderText {#text} at (673,190) size 9x19
            text run at (673,190) width 9: " "
          RenderInline {TT} at (0,0) size 78x15
            RenderText {#text} at (682,194) size 78x15
              text run at (682,194) width 78: "within"
          RenderText {#text} at (0,209) size 689x38
            text run at (0,209) width 689: "elements too. (with monospace font from Word to"
            text run at (0,228) width 105: "elements)"
          RenderBR {BR} at (125,243) size 0x0
          RenderText {#text} at (0,247) size 424x19
            text run at (0,247) width 242: "Word and letter "
            text run at (242,247) width 182: "spacing test "
          RenderInline {SPAN} at (0,0) size 287x15
            RenderInline {EM} at (0,0) size 39x15
              RenderText {#text} at (424,251) size 39x15
                text run at (424,251) width 39: "for"
            RenderText {#text} at (483,251) size 13x15
              text run at (483,251) width 13: " "
            RenderInline {STRONG} at (0,0) size 104x15
              RenderText {#text} at (496,251) size 104x15
                text run at (496,251) width 104: "elements"
            RenderText {#text} at (620,251) size 13x15
              text run at (620,251) width 13: " "
            RenderInline {TT} at (0,0) size 78x15
              RenderText {#text} at (633,251) size 78x15
                text run at (633,251) width 78: "within"
          RenderText {#text} at (0,266) size 666x38
            text run at (0,266) width 666: "elements too. (with monospace font from for to"
            text run at (0,285) width 80: "within)"
          RenderBR {BR} at (100,300) size 0x0
          RenderText {#text} at (0,304) size 424x19
            text run at (0,304) width 242: "Word and letter "
            text run at (242,304) width 182: "spacing test "
          RenderInline {EM} at (0,0) size 33x19
            RenderText {#text} at (424,304) size 33x19
              text run at (424,304) width 33: "for"
          RenderText {#text} at (477,304) size 9x19
            text run at (477,304) width 9: " "
          RenderInline {STRONG} at (0,0) size 98x19
            RenderText {#text} at (486,304) size 98x19
              text run at (486,304) width 98: "elements"
          RenderText {#text} at (604,304) size 9x19
            text run at (604,304) width 9: " "
          RenderInline {SPAN} at (0,0) size 691x34
            RenderInline {TT} at (0,0) size 78x15
              RenderText {#text} at (613,308) size 78x15
                text run at (613,308) width 78: "within"
            RenderText {#text} at (0,327) size 176x15
              text run at (0,327) width 176: "elements too"
          RenderText {#text} at (176,323) size 745x38
            text run at (176,323) width 569: ". (with monospace font from elements to"
            text run at (0,342) width 45: "too)"
        RenderText {#text} at (0,0) size 0x0
