layer at (0,0) size 800x600
  RenderView at (0,0) size 800x600
layer at (0,0) size 450x500
  RenderSVGRoot {svg} at (0,25) size 383x454
    RenderSVGContainer {g} at (0,25) size 383x354
      RenderSVGText {text} at (189,25) size 72x18 contains 1 chunk(s)
        RenderSVGInlineText {#text} at (0,0) size 72x18
          chunk 1 (middle anchor) text run 1 at (189.00,40.00) startOffset 0 endOffset 11 width 72.00: "feTile Test"
      RenderSVGHiddenContainer {defs} at (0,0) size 0x0
        RenderSVGResourceLinearGradient {linearGradient} [id="tileFill"] [gradientUnits=objectBoundingBox] [start=(0,0)] [end=(1,1)]
          RenderSVGGradientStop {stop} [offset=0.00] [color=#FFFFFF]
          RenderSVGGradientStop {stop} [offset=0.50] [color=#44CCFF]
          RenderSVGGradientStop {stop} [offset=1.00] [color=#000033]
        RenderSVGResourceFilter {filter} [id="tile_1"] [filterUnits=objectBoundingBox] [primitiveUnits=objectBoundingBox]
          [feTile]
            [feOffset dx="0.00" dy="0.00"]
              [SourceGraphic]
        RenderSVGResourceFilter {filter} [id="tile_2"] [filterUnits=objectBoundingBox] [primitiveUnits=objectBoundingBox]
          [feTile]
            [feOffset dx="0.00" dy="0.00"]
              [SourceGraphic]
        RenderSVGResourceFilter {filter} [id="tile_3"] [filterUnits=objectBoundingBox] [primitiveUnits=objectBoundingBox]
          [feTile]
            [feOffset dx="0.00" dy="0.00"]
              [SourceGraphic]
      RenderSVGContainer {g} at (5,70) size 130x81 [transform={m=((1.00,0.00)(0.00,1.00)) t=(20.00,100.00)}]
        RenderSVGPath {rect} at (20,100) size 100x50 [fill={[type=LINEAR-GRADIENT] [id="tileFill"]}] [x=0.00] [y=0.00] [width=50.00] [height=25.00]
          [filter="tile_1"] RenderSVGResourceFilter {filter} at (0,0) size 100x50
        RenderSVGPath {rect} at (19,99) size 102x52 [stroke={[type=SOLID] [color=#000000]}] [x=0.00] [y=0.00] [width=100.00] [height=50.00]
        RenderSVGText {text} at (31,-30) size 38x18 contains 1 chunk(s)
          RenderSVGInlineText {#text} at (0,0) size 38x18
            chunk 1 (middle anchor) text run 1 at (31.00,-15.00) startOffset 0 endOffset 6 width 38.00: "tile_1"
        RenderSVGText {text} at (-15,-18) size 130x18 contains 1 chunk(s)
          RenderSVGInlineText {#text} at (0,0) size 130x18
            chunk 1 (middle anchor) text run 1 at (-15.00,-3.00) startOffset 0 endOffset 21 width 130.00: "4 tiles, quarter size"
      RenderSVGContainer {g} at (0,170) size 142x81 [transform={m=((1.00,0.00)(0.00,1.00)) t=(20.00,200.00)}]
        RenderSVGPath {rect} at (20,200) size 100x50 [fill={[type=LINEAR-GRADIENT] [id="tileFill"]}] [x=25.00] [y=12.50] [width=50.00] [height=25.00]
          [filter="tile_2"] RenderSVGResourceFilter {filter} at (0,0) size 100x50
        RenderSVGPath {rect} at (19,199) size 102x52 [stroke={[type=SOLID] [color=#000000]}] [x=0.00] [y=0.00] [width=100.00] [height=50.00]
        RenderSVGText {text} at (-7,-30) size 114x18 contains 1 chunk(s)
          RenderSVGInlineText {#text} at (0,0) size 114x18
            chunk 1 (middle anchor) text run 1 at (-6.50,-15.00) startOffset 0 endOffset 17 width 113.00: "tile_2 (centered)"
        RenderSVGText {text} at (-22,-18) size 144x18 contains 1 chunk(s)
          RenderSVGInlineText {#text} at (0,0) size 144x18
            chunk 1 (middle anchor) text run 1 at (-22.00,-3.00) startOffset 0 endOffset 26 width 144.00: "9 tiles, 1 full, 8 partial"
      RenderSVGContainer {g} at (0,269) size 143x83 [transform={m=((1.00,0.00)(0.00,1.00)) t=(32.50,307.25)}]
        RenderSVGPath {rect} at (19,300) size 102x52 [fill={[type=LINEAR-GRADIENT] [id="tileFill"]}] [x=0.00] [y=0.00] [width=50.00] [height=25.00]
          [filter="tile_3"] RenderSVGResourceFilter {filter} at (-12.50,-6.25) size 100x50
        RenderSVGPath {rect} at (19,299) size 102x53 [stroke={[type=SOLID] [color=#000000]}] [x=-12.50] [y=-7.25] [width=100.00] [height=50.00]
        RenderSVGText {text} at (-33,-38) size 141x19 contains 1 chunk(s)
          RenderSVGInlineText {#text} at (0,0) size 141x19
            chunk 1 (middle anchor) text run 1 at (-32.50,-22.25) startOffset 0 endOffset 24 width 140.00: "tile_3 (top left offset)"
        RenderSVGText {text} at (-35,-26) size 145x19 contains 1 chunk(s)
          RenderSVGInlineText {#text} at (0,0) size 145x19
            chunk 1 (middle anchor) text run 1 at (-34.50,-10.25) startOffset 0 endOffset 26 width 144.00: "9 tiles, 1 full, 8 partial"
      RenderSVGContainer {g} at (243,99) size 133x52 [transform={m=((1.00,0.00)(0.58,1.00)) t=(245.00,100.00)}]
        RenderSVGPath {rect} at (245,100) size 129x50 [fill={[type=LINEAR-GRADIENT] [id="tileFill"]}] [x=0.00] [y=0.00] [width=50.00] [height=25.00]
          [filter="tile_1"] RenderSVGResourceFilter {filter} at (0,0) size 100x50
        RenderSVGPath {rect} at (243,99) size 133x52 [stroke={[type=SOLID] [color=#000000]}] [x=0.00] [y=0.00] [width=100.00] [height=50.00]
      RenderSVGContainer {g} at (260,70) size 70x30 [transform={m=((1.00,0.00)(0.00,1.00)) t=(245.00,100.00)}]
        RenderSVGText {text} at (31,-30) size 38x18 contains 1 chunk(s)
          RenderSVGInlineText {#text} at (0,0) size 38x18
            chunk 1 (middle anchor) text run 1 at (31.00,-15.00) startOffset 0 endOffset 6 width 38.00: "tile_1"
        RenderSVGText {text} at (15,-18) size 70x18 contains 1 chunk(s)
          RenderSVGInlineText {#text} at (0,0) size 70x18
            chunk 1 (middle anchor) text run 1 at (15.50,-3.00) startOffset 0 endOffset 8 width 69.00: "skewed X"
      RenderSVGContainer {g} at (255,200) size 80x60 [transform={m=((0.66,0.24)(-0.24,0.66)) t=(268.10,201.58)}]
        RenderSVGPath {rect} at (256,201) size 78x58 [fill={[type=LINEAR-GRADIENT] [id="tileFill"]}] [x=25.00] [y=12.50] [width=50.00] [height=25.00]
          [filter="tile_2"] RenderSVGResourceFilter {filter} at (0,0) size 100x50
        RenderSVGPath {rect} at (255,200) size 80x60 [stroke={[type=SOLID] [color=#000000]}] [x=0.00] [y=0.00] [width=100.00] [height=50.00]
      RenderSVGContainer {g} at (207,170) size 176x30 [transform={m=((1.00,0.00)(0.00,1.00)) t=(245.00,200.00)}]
        RenderSVGText {text} at (31,-30) size 38x18 contains 1 chunk(s)
          RenderSVGInlineText {#text} at (0,0) size 38x18
            chunk 1 (middle anchor) text run 1 at (31.00,-15.00) startOffset 0 endOffset 6 width 38.00: "tile_2"
        RenderSVGText {text} at (-38,-18) size 176x18 contains 1 chunk(s)
          RenderSVGInlineText {#text} at (0,0) size 176x18
            chunk 1 (middle anchor) text run 1 at (-37.50,-3.00) startOffset 0 endOffset 26 width 175.00: "(centered, rotate & scale)"
      RenderSVGContainer {g} at (244,300) size 102x80 [transform={m=((1.00,0.27)(0.00,1.00)) t=(257.50,310.60)}]
        RenderSVGPath {rect} at (244,300) size 102x79 [fill={[type=LINEAR-GRADIENT] [id="tileFill"]}] [x=0.00] [y=0.00] [width=50.00] [height=25.00]
          [filter="tile_3"] RenderSVGResourceFilter {filter} at (-12.50,-6.25) size 100x50
        RenderSVGPath {rect} at (244,300) size 102x80 [stroke={[type=SOLID] [color=#000000]}] [x=-12.50] [y=-6.25] [width=100.00] [height=50.00]
      RenderSVGContainer {g} at (224,269) size 142x32 [transform={m=((1.00,0.00)(0.00,1.00)) t=(257.50,307.25)}]
        RenderSVGText {text} at (-33,-38) size 141x19 contains 1 chunk(s)
          RenderSVGInlineText {#text} at (0,0) size 141x19
            chunk 1 (middle anchor) text run 1 at (-32.50,-22.25) startOffset 0 endOffset 24 width 140.00: "tile_3 (top left offset)"
        RenderSVGText {text} at (4,-26) size 67x19 contains 1 chunk(s)
          RenderSVGInlineText {#text} at (0,0) size 67x19
            chunk 1 (middle anchor) text run 1 at (4.00,-10.25) startOffset 0 endOffset 8 width 67.00: "skewed Y"
    RenderSVGContainer {a} at (20,460) size 152x19
      RenderSVGText {text} at (20,460) size 152x19 contains 1 chunk(s)
        RenderSVGInlineText {#text} at (0,0) size 152x19
          chunk 1 text run 1 at (20.00,475.00) startOffset 0 endOffset 26 width 152.00: "How it should look like..."
    RenderSVGContainer {use} at (0,0) size 0x0
