CONSOLE MESSAGE: line 1: Refused to execute inline event handler because of Content-Security-Policy.

  

--------
Frame: '<!--framePath //<!--frame0-->-->'
--------
PASS

--------
Frame: '<!--framePath //<!--frame1-->-->'
--------
PASS
