layer at (0,0) size 800x600
  RenderView at (0,0) size 800x600
layer at (0,0) size 800x600
  RenderSVGRoot {svg} at (0,0) size 800x600
    RenderSVGContainer {g} at (8,13) size 792x462
      RenderSVGText {text} at (5,8) size 477x40 contains 1 chunk(s)
        RenderSVGInlineText {#text} at (0,0) size 477x40
          chunk 1 text run 1 at (5.00,40.00) startOffset 0 endOffset 34 width 476.40: "Test 'baseline-shift' (horizontal)"
      RenderSVGContainer {g} at (25,141) size 672x334 [transform={m=((1.00,0.00)(0.00,1.00)) t=(15.00,120.00)}]
        RenderSVGText {text} at (0,-35) size 349x42 contains 1 chunk(s)
          RenderSVGInlineText {#text} at (0,7) size 98x35
            chunk 1 text run 1 at (0.00,0.00) startOffset 0 endOffset 6 width 97.20: "Normal"
          RenderSVGTSpan {tspan} at (0,0) size 203x35
            RenderSVGInlineText {#text} at (97,0) size 203x35
              chunk 1 text run 1 at (97.20,-7.00) startOffset 0 endOffset 16 width 202.80: "baseline-shift:7"
          RenderSVGInlineText {#text} at (300,7) size 49x35
            chunk 1 text run 1 at (300.00,0.00) startOffset 0 endOffset 4 width 48.60: "text"
        RenderSVGText {text} at (0,42) size 403x56 contains 1 chunk(s)
          RenderSVGInlineText {#text} at (0,0) size 98x35
            chunk 1 text run 1 at (0.00,70.00) startOffset 0 endOffset 6 width 97.20: "Normal"
          RenderSVGTSpan {tspan} at (0,0) size 257x35
            RenderSVGInlineText {#text} at (97,21) size 257x35
              chunk 1 text run 1 at (97.20,91.00) startOffset 0 endOffset 19 width 256.20: "baseline-shift:-70%"
          RenderSVGInlineText {#text} at (353,0) size 50x35
            chunk 1 text run 1 at (353.40,70.00) startOffset 0 endOffset 4 width 48.60: "text"
        RenderSVGText {text} at (0,94) size 270x71 contains 1 chunk(s)
          RenderSVGInlineText {#text} at (0,18) size 98x35
            chunk 1 text run 1 at (0.00,140.00) startOffset 0 endOffset 6 width 97.20: "Normal"
          RenderSVGTSpan {tspan} at (0,0) size 49x36
            RenderSVGInlineText {#text} at (97,35) size 49x36
              chunk 1 text run 1 at (97.20,157.50) startOffset 0 endOffset 3 width 48.60: "sub"
          RenderSVGTSpan {tspan} at (0,0) size 77x36
            RenderSVGInlineText {#text} at (145,0) size 77x36
              chunk 1 text run 1 at (145.80,122.50) startOffset 0 endOffset 5 width 75.60: "super"
          RenderSVGTSpan {tspan} at (0,0) size 26x35
            RenderSVGInlineText {#text} at (221,18) size 26x35
              chunk 1 text run 1 at (221.40,140.00) startOffset 0 endOffset 2 width 25.20: "te"
          RenderSVGInlineText {#text} at (246,18) size 24x35
            chunk 1 text run 1 at (246.60,140.00) startOffset 0 endOffset 2 width 23.40: "xt"
    RenderSVGText {text} at (10,304) size 269x45 contains 1 chunk(s)
      RenderSVGInlineText {#text} at (0,0) size 269x45
        chunk 1 text run 1 at (10.00,340.00) startOffset 0 endOffset 16 width 268.20: "$Revision: 1.5 $"
    RenderSVGPath {rect} at (0,0) size 800x600 [stroke={[type=SOLID] [color=#000000]}] [x=1.00] [y=1.00] [width=478.00] [height=358.00]
selection start: position 0 of child 0 {#text} of child 1 {text} of child 13 {g} of child 27 {svg} of document
selection end:   position 16 of child 0 {#text} of child 15 {text} of child 27 {svg} of document
