layer at (0,0) size 800x600
  RenderView at (0,0) size 800x600
layer at (0,0) size 800x600
  RenderBlock {HTML} at (0,0) size 800x600
    RenderBody {BODY} at (8,8) size 784x584
      RenderTable {TABLE} at (0,0) size 345x121 [border: (1px outset #808080)]
        RenderTableSection {TBODY} at (1,1) size 343x119
          RenderTableRow {TR} at (0,2) size 343x9
            RenderTableCell {TD} at (2,5) size 126x39 [border: (1px inset #808080)] [r=0 c=0 rs=2 cs=2]
              RenderImage {IMG} at (2,2) size 122x35
            RenderTableCell {TD} at (130,2) size 199x9 [border: (1px inset #808080)] [r=0 c=2 rs=1 cs=1]
              RenderImage {IMG} at (2,2) size 195x5
            RenderTableCell {TD} at (331,1) size 10x117 [border: (1px inset #808080)] [r=0 c=3 rs=4 cs=1]
              RenderImage {IMG} at (2,2) size 6x113
          RenderTableRow {TR} at (0,13) size 343x34
            RenderTableCell {TD} at (130,13) size 199x34 [border: (1px inset #808080)] [r=1 c=2 rs=1 cs=1]
              RenderInline {A} at (0,0) size 195x22 [color=#0000EE]
                RenderText {#text} at (0,0) size 0x0
                RenderImage {IMG} at (2,2) size 195x30
