layer at (0,0) size 480x360
  RenderView at (0,0) size 480x360
layer at (0,0) size 480x360
  RenderSVGRoot {svg} at (0,0) size 480x360
    RenderSVGContainer {g} at (10,10) size 460x269
      RenderSVGText {text} at (10,10) size 202x20 contains 1 chunk(s)
        RenderSVGInlineText {#text} at (0,0) size 202x20
          chunk 1 text run 1 at (10.00,25.00) startOffset 0 endOffset 30 width 202.00: "Testing spreadMethod attribute"
      RenderSVGResourceLinearGradient {linearGradient} [id="Grad1"] [gradientUnits=objectBoundingBox] [start=(0.40,0)] [end=(0.60,0)]
        RenderSVGGradientStop {stop} [offset=0.00] [color=#0000FF]
        RenderSVGGradientStop {stop} [offset=1.00] [color=#FF0000]
      RenderSVGPath {rect} at (10,35) size 460x55 [fill={[type=LINEAR-GRADIENT] [id="Grad1"]}] [x=10.00] [y=35.00] [width=460.00] [height=55.00]
      RenderSVGText {text} at (10,93) size 107x16 contains 1 chunk(s)
        RenderSVGInlineText {#text} at (0,0) size 107x16
          chunk 1 text run 1 at (10.00,105.00) startOffset 0 endOffset 16 width 107.00: "spreadMethod=pad"
      RenderSVGResourceLinearGradient {linearGradient} [id="Grad2"] [gradientUnits=objectBoundingBox] [spreadMethod=REFLECT] [start=(0.40,0)] [end=(0.60,0)]
        RenderSVGGradientStop {stop} [offset=0.00] [color=#0000FF]
        RenderSVGGradientStop {stop} [offset=1.00] [color=#FF0000]
      RenderSVGPath {rect} at (10,120) size 460x55 [fill={[type=LINEAR-GRADIENT] [id="Grad2"]}] [x=10.00] [y=120.00] [width=460.00] [height=55.00]
      RenderSVGText {text} at (10,178) size 119x16 contains 1 chunk(s)
        RenderSVGInlineText {#text} at (0,0) size 119x16
          chunk 1 text run 1 at (10.00,190.00) startOffset 0 endOffset 20 width 119.00: "spreadMethod=reflect"
      RenderSVGResourceLinearGradient {linearGradient} [id="Grad3"] [gradientUnits=objectBoundingBox] [spreadMethod=REPEAT] [start=(0.40,0)] [end=(0.60,0)]
        RenderSVGGradientStop {stop} [offset=0.00] [color=#0000FF]
        RenderSVGGradientStop {stop} [offset=1.00] [color=#FF0000]
      RenderSVGPath {rect} at (10,205) size 460x55 [fill={[type=LINEAR-GRADIENT] [id="Grad3"]}] [x=10.00] [y=205.00] [width=460.00] [height=55.00]
      RenderSVGText {text} at (10,263) size 121x16 contains 1 chunk(s)
        RenderSVGInlineText {#text} at (0,0) size 121x16
          chunk 1 text run 1 at (10.00,275.00) startOffset 0 endOffset 19 width 121.00: "spreadMethod=repeat"
    RenderSVGText {text} at (10,301) size 270x53 contains 1 chunk(s)
      RenderSVGInlineText {#text} at (0,0) size 270x53
        chunk 1 text run 1 at (10.00,340.00) startOffset 0 endOffset 16 width 270.00: "$Revision: 1.7 $"
    RenderSVGPath {rect} at (0,0) size 480x360 [stroke={[type=SOLID] [color=#000000]}] [x=1.00] [y=1.00] [width=478.00] [height=358.00]
