layer at (0,0) size 800x600
  RenderView at (0,0) size 800x600
layer at (0,0) size 800x580
  RenderBlock {HTML} at (0,0) size 800x580
    RenderBody {BODY} at (8,16) size 784x502
      RenderBlock {P} at (0,0) size 784x44
        RenderText {#text} at (0,0) size 57x22
          text run at (0,0) width 57: "Test for "
        RenderInline {I} at (0,0) size 736x44
          RenderInline {A} at (0,0) size 296x22 [color=#0000EE]
            RenderText {#text} at (57,0) size 296x22
              text run at (57,0) width 296: "http://bugs.webkit.org/show_bug.cgi?id=5399"
          RenderText {#text} at (353,0) size 736x44
            text run at (353,0) width 4: " "
            text run at (357,0) width 379: "no-repeat on negatively positioned background images are"
            text run at (0,22) width 50: "ignored"
        RenderText {#text} at (50,22) size 4x22
          text run at (50,22) width 4: "."
      RenderBlock {P} at (0,60) size 784x22
        RenderText {#text} at (0,0) size 488x22
          text run at (0,0) width 488: "Element with background image starting at (-13, -13) with no-repeat set:"
      RenderBlock (floating) {DIV} at (6,104) size 34x34 [border: (1px dotted #008000)]
      RenderBlock (floating) {DIV} at (52,104) size 29x29 [border: (1px dotted #008000)]
      RenderBlock (floating) {DIV} at (93,104) size 24x24 [border: (1px dotted #008000)]
      RenderBlock {P} at (0,144) size 784x22
        RenderText {#text} at (0,0) size 479x22
          text run at (0,0) width 479: "Element with background image starting at (-13, -13) with repeat-y set:"
      RenderBlock (floating) {DIV} at (6,188) size 34x34 [border: (1px dotted #008000)]
      RenderBlock (floating) {DIV} at (52,188) size 29x29 [border: (1px dotted #008000)]
      RenderBlock (floating) {DIV} at (93,188) size 24x24 [border: (1px dotted #008000)]
      RenderBlock {P} at (0,228) size 784x22
        RenderText {#text} at (0,0) size 479x22
          text run at (0,0) width 479: "Element with background image starting at (-13, -13) with repeat-x set:"
      RenderBlock (floating) {DIV} at (6,272) size 34x34 [border: (1px dotted #008000)]
      RenderBlock (floating) {DIV} at (52,272) size 29x29 [border: (1px dotted #008000)]
      RenderBlock (floating) {DIV} at (93,272) size 24x24 [border: (1px dotted #008000)]
      RenderBlock {P} at (0,312) size 784x22
        RenderText {#text} at (0,0) size 478x22
          text run at (0,0) width 478: "Element with background image starting at (13, 13) with no-repeat set:"
      RenderBlock (floating) {DIV} at (6,356) size 34x34 [border: (1px dotted #008000)]
      RenderBlock (floating) {DIV} at (52,356) size 29x29 [border: (1px dotted #008000)]
      RenderBlock (floating) {DIV} at (93,356) size 24x24 [border: (1px dotted #008000)]
      RenderBlock {P} at (0,396) size 784x22
        RenderText {#text} at (0,0) size 469x22
          text run at (0,0) width 469: "Element with background image starting at (13, 13) with repeat-y set:"
      RenderBlock (floating) {DIV} at (6,440) size 34x34 [border: (1px dotted #008000)]
      RenderBlock (floating) {DIV} at (52,440) size 29x29 [border: (1px dotted #008000)]
      RenderBlock (floating) {DIV} at (93,440) size 24x24 [border: (1px dotted #008000)]
      RenderBlock {P} at (0,480) size 784x22
        RenderText {#text} at (0,0) size 469x22
          text run at (0,0) width 469: "Element with background image starting at (13, 13) with repeat-x set:"
      RenderBlock (floating) {DIV} at (6,524) size 34x34 [border: (1px dotted #008000)]
      RenderBlock (floating) {DIV} at (52,524) size 29x29 [border: (1px dotted #008000)]
      RenderBlock (floating) {DIV} at (93,524) size 24x24 [border: (1px dotted #008000)]
