layer at (0,0) size 800x600
  RenderView at (0,0) size 800x600
layer at (0,0) size 800x600
  RenderSVGRoot {svg} at (20,74) size 205x59
    RenderSVGText {text} at (20,74) size 205x59 contains 1 chunk(s)
      RenderSVGInlineText {#text} at (0,0) size 86x59
        chunk 1 text run 1 at (20.00,120.00) startOffset 0 endOffset 4 width 86.00: "Test"
      RenderSVGTSpan {tspan} at (0,0) size 119x59
        RenderSVGInlineText {#text} at (86,0) size 13x59
          chunk 1 text run 1 at (106.00,120.00) startOffset 0 endOffset 1 width 13.00: " "
        RenderSVGTSpan {tspan} at (0,0) size 75x59
          RenderSVGInlineText {#text} at (130,0) size 75x59
            chunk 1 text run 1 at (150.00,120.00) startOffset 0 endOffset 4 width 75.00: "text"
