layer at (0,0) size 800x600
  RenderView at (0,0) size 800x600
layer at (0,0) size 800x600
  RenderBlock {HTML} at (0,0) size 800x600
    RenderBody {BODY} at (8,8) size 784x584
      RenderTable {TABLE} at (0,0) size 783x82 [border: (1px outset #808080)]
        RenderTableSection {TBODY} at (1,1) size 781x80
          RenderTableRow {TR} at (0,0) size 781x37
            RenderTableCell {TD} at (0,6) size 781x24 [border: (1px inset #808080)] [r=0 c=0 rs=1 cs=1]
              RenderBR {BR} at (1,1) size 0x22
          RenderTableRow {TR} at (0,37) size 781x5
            RenderTableCell {TD} at (0,37) size 781x5 [border: (1px inset #808080)] [r=1 c=0 rs=1 cs=1]
              RenderImage {IMG} at (1,1) size 779x3
          RenderTableRow {TR} at (0,42) size 781x38
            RenderTableCell {TD} at (0,49) size 781x24 [bgcolor=#CC0000] [border: (1px inset #808080)] [r=2 c=0 rs=1 cs=1]
              RenderBR {BR} at (1,1) size 0x22
