
Please follow this link for a manual test.

--------
Frame: '<!--framePath //<!--frame0-->-->'
--------

Test for NPP_SetWindow calls sent while a plug-in resizes itself.

x: 0, y: 0, width: 200, height: 200, clipRect: (0, 0, 0, 0)
Height and width should equal 200, and the plug-in size should not change on scroll.

